# Blender v2.77 (sub 0) OBJ File: 'SpaceShip02.blend'
# www.blender.org
o spaceship01_Cube.001
v 0.527803 0.353891 -0.032900
v 0.508584 0.331819 -0.045388
v 0.531474 0.309976 -0.042008
v 0.550693 0.332048 -0.029520
v 0.489240 0.348881 0.056259
v 0.467911 0.326528 0.048649
v 0.486974 0.304175 0.060874
v 0.508303 0.326528 0.068484
v 0.448411 0.373209 0.129795
v 0.424890 0.352088 0.126163
v 0.439861 0.332036 0.145817
v 0.463382 0.353157 0.149449
v 0.407030 0.417490 0.189170
v 0.381825 0.398106 0.187975
v 0.393321 0.381635 0.212654
v 0.418527 0.401019 0.213849
v 0.366567 0.473166 0.234778
v 0.340356 0.455124 0.234717
v 0.349072 0.442367 0.262534
v 0.375283 0.460409 0.262595
v 0.327903 0.532129 0.266944
v 0.301429 0.514477 0.267100
v 0.307709 0.505322 0.296920
v 0.334183 0.522974 0.296764
v 0.291002 0.587142 0.286327
v 0.265373 0.568285 0.286057
v 0.269034 0.562864 0.317197
v 0.294663 0.581721 0.317467
v 0.254626 0.632191 0.293828
v 0.232326 0.609509 0.292959
v 0.232340 0.608278 0.324755
v 0.254639 0.630960 0.325624
v 0.215924 0.662194 0.290160
v 0.202422 0.633381 0.290212
v 0.196821 0.636063 0.321420
v 0.210323 0.664876 0.321368
v 0.171776 0.671296 0.275871
v 0.171774 0.639750 0.280039
v 0.160231 0.643635 0.309435
v 0.160232 0.675180 0.305267
v 0.120864 0.654943 0.253039
v 0.131357 0.626159 0.261633
v 0.116807 0.629253 0.289762
v 0.106315 0.658037 0.281169
v 0.060121 0.612236 0.224214
v 0.075969 0.586961 0.235284
v 0.060829 0.589668 0.263140
v 0.044982 0.614943 0.252071
v 0.636994 0.243387 0.249502
v 0.614965 0.222326 0.240356
v 0.637921 0.201864 0.232181
v 0.659950 0.222925 0.241327
v 0.632451 0.205459 0.373667
v 0.610229 0.183185 0.368922
v 0.632896 0.160911 0.367324
v 0.655119 0.183185 0.372069
v 0.624977 0.205689 0.448941
v 0.601845 0.184000 0.451587
v 0.623030 0.162680 0.462034
v 0.646162 0.184368 0.459388
v 0.616572 0.226896 0.481230
v 0.590961 0.211299 0.491873
v 0.607573 0.201214 0.517069
v 0.633184 0.216811 0.506425
v 0.605519 0.262554 0.485364
v 0.577250 0.254836 0.497764
v 0.588021 0.262064 0.526820
v 0.616291 0.269782 0.514420
v 0.588462 0.312842 0.463881
v 0.559060 0.308314 0.475176
v 0.566040 0.326234 0.500527
v 0.595441 0.330762 0.489232
v 0.564406 0.367916 0.418514
v 0.534969 0.363468 0.429747
v 0.539456 0.386911 0.450790
v 0.568893 0.391359 0.439557
v 0.531618 0.418230 0.356893
v 0.503135 0.412375 0.369812
v 0.505369 0.439143 0.386870
v 0.533853 0.444998 0.373951
v 0.486943 0.456787 0.288531
v 0.461194 0.448694 0.305383
v 0.460825 0.477592 0.318698
v 0.486574 0.485685 0.301845
v 0.425841 0.477925 0.224264
v 0.406411 0.467787 0.247334
v 0.402783 0.497739 0.257441
v 0.422213 0.507878 0.234372
v 0.342958 0.476656 0.177225
v 0.334520 0.466641 0.206225
v 0.327545 0.496556 0.214527
v 0.335983 0.506571 0.185527
v 0.234011 0.449421 0.162873
v 0.238138 0.442366 0.193626
v 0.228871 0.471742 0.201608
v 0.224745 0.478797 0.170856
v -0.370617 0.095454 0.857748
v -0.370524 0.074472 0.833827
v -0.366381 0.050762 0.854639
v -0.366473 0.071744 0.878561
v -0.435266 0.102087 0.852253
v -0.434867 0.081063 0.828371
v -0.450274 0.060039 0.846622
v -0.450673 0.081063 0.870504
v -0.470781 0.133619 0.822904
v -0.469320 0.111789 0.799799
v -0.497887 0.100745 0.808428
v -0.499348 0.122574 0.831532
v -0.486211 0.185622 0.769272
v -0.484177 0.162381 0.747634
v -0.515787 0.158829 0.748477
v -0.517821 0.182070 0.770115
v -0.484504 0.250124 0.695425
v -0.482449 0.225542 0.675325
v -0.514114 0.225455 0.672193
v -0.516170 0.250036 0.692293
v -0.469794 0.318377 0.607912
v -0.467983 0.292563 0.589396
v -0.499300 0.294229 0.584011
v -0.501111 0.320043 0.602528
v -0.445971 0.383127 0.513493
v -0.444598 0.356115 0.496731
v -0.475494 0.358934 0.489657
v -0.476867 0.385946 0.506419
v -0.415825 0.438235 0.419443
v -0.415143 0.409993 0.404799
v -0.445421 0.413910 0.395835
v -0.446103 0.442152 0.410478
v -0.380967 0.478469 0.333819
v -0.381507 0.448915 0.322039
v -0.410460 0.454256 0.309967
v -0.409920 0.483810 0.321748
v -0.342132 0.499492 0.265769
v -0.345414 0.468728 0.258335
v -0.370341 0.475846 0.239883
v -0.367059 0.506610 0.247317
v -0.300009 0.498661 0.225045
v -0.309646 0.468416 0.222842
v -0.322315 0.474531 0.194301
v -0.312677 0.504776 0.196504
v -0.252325 0.475139 0.218540
v -0.269931 0.448656 0.217465
v -0.264069 0.446024 0.186300
v -0.246462 0.472508 0.187376
v -0.192410 0.559572 0.157729
v -0.197067 0.567638 -0.946500
v -0.333264 0.418718 0.157729
v -0.341330 0.423375 -0.946500
v -0.384820 0.226308 0.157729
v -0.394134 0.226308 -0.946500
v -0.341330 0.029241 -0.946500
v -0.197067 -0.115023 -0.946500
v -0.250000 0.659320 0.005146
v -0.433013 0.476308 0.005146
v -0.500000 0.226308 0.005146
v -0.433013 -0.023692 0.005146
v -0.250000 -0.206705 0.005146
v -0.183747 0.542885 0.246694
v -0.318259 0.409084 0.246694
v -0.367494 0.226308 0.246694
v -0.250000 0.659321 -0.946500
v -0.433013 0.476308 -0.946500
v -0.500000 0.226308 -0.946500
v -0.433013 -0.023692 -0.946500
v -0.250000 -0.206705 -0.946500
v -0.128456 0.448801 -0.554199
v -0.222493 0.354764 -0.554199
v -0.256913 0.226308 -0.554199
v -0.222493 0.097851 -0.554199
v -0.128456 0.003815 -0.554199
v -0.684034 0.527608 -0.142754
v -0.686372 0.769899 -0.162195
v -0.660229 0.475818 0.081779
v -0.675062 0.745291 -0.055509
v -0.710865 0.528445 -0.139716
v -0.698018 0.770262 -0.160876
v -0.687060 0.476655 0.084817
v -0.686707 0.745654 -0.054191
v -0.322528 0.573698 -0.458662
v -0.594076 0.855860 -0.582424
v -0.322528 0.573698 -0.067271
v -0.594076 0.855860 -0.396457
v -0.356442 0.543149 -0.458662
v -0.608796 0.842601 -0.582424
v -0.356442 0.543149 -0.067271
v -0.608796 0.842601 -0.396457
v -0.171701 0.482056 1.247963
v -0.299151 0.354606 1.247963
v -0.345801 0.180506 1.253877
v -0.171701 0.482056 0.726197
v -0.299151 0.354606 0.810965
v -0.345801 0.180506 0.880926
v -0.388666 0.179044 1.236388
v -0.151651 0.070742 2.166312
v -0.165870 0.470078 1.370741
v -0.216428 0.234785 2.013680
v -0.164282 0.454948 1.559748
v -0.160882 0.413324 1.696030
v -0.157684 0.345579 1.846094
v -0.287464 0.348484 1.396774
v -0.276649 0.341438 1.625418
v -0.255170 0.311734 1.774921
v -0.232776 0.265033 1.913740
v -0.156297 0.263617 1.998920
v -0.388666 0.179044 0.864103
v -0.336606 0.166148 1.543449
v -0.224135 0.070742 2.133818
v -0.265637 0.079274 2.064848
v -0.301370 0.104015 1.951107
v -0.326108 0.135189 1.807649
v -0.157229 0.048200 2.225350
v -0.377705 0.161929 1.534458
v -0.243633 0.048200 2.183486
v -0.293106 0.058371 2.105047
v -0.335701 0.087863 1.977238
v -0.365190 0.125025 1.813720
v -0.388666 -0.018814 1.237925
v -0.388666 -0.018814 0.864314
v -0.157229 -0.149658 2.225350
v -0.377705 -0.035929 1.541481
v -0.243633 -0.149658 2.183486
v -0.293106 -0.139487 2.105047
v -0.335701 -0.109995 1.977238
v -0.365190 -0.072834 1.813720
v -0.181445 0.520439 0.450599
v -0.530603 0.179044 0.450599
v -0.530603 -0.018814 0.450599
v -0.174010 0.462133 -0.353039
v -0.470970 0.410882 -0.353039
v -0.530603 -0.018814 -0.353039
v -0.324809 0.258851 1.250002
v -0.324809 0.258851 0.852012
v -0.153742 0.157536 2.121122
v -0.314492 0.248199 1.478014
v -0.303851 0.228001 1.737156
v -0.280580 0.197489 1.890125
v -0.250849 0.162866 2.015948
v -0.220667 0.144561 2.102941
v -0.452538 -0.018814 0.679984
v -0.452538 0.179044 0.679984
v -0.839189 0.347796 -0.600196
v -0.707641 0.325344 -0.028297
v -0.839190 0.234341 -0.600196
v -0.707641 0.238716 -0.028297
v -1.336743 0.344838 0.470012
v -1.336743 0.344838 -0.330047
v -1.336743 0.228232 0.470012
v -1.336743 0.228232 -0.330047
v -2.856980 1.103912 -0.418852
v -2.856980 1.103913 -0.767223
v -2.880235 1.058777 -0.418852
v -2.880235 1.058777 -0.767223
v -2.956927 1.155409 -0.518087
v -2.956927 1.155409 -0.667989
v -2.980182 1.110274 -0.518087
v -2.980182 1.110274 -0.667989
v -0.564057 0.257736 0.330236
v -0.562167 0.359451 0.299309
v -0.553837 0.460800 0.162997
v -0.526666 0.575129 -0.281628
v -0.804543 0.780288 -0.967647
v -0.751501 0.406499 -0.871684
v -0.753701 0.276943 -0.835649
v -0.755954 0.144300 -0.798805
v -0.757533 0.051279 -0.772953
v -0.526666 -0.059658 -0.281628
v -0.553837 0.054671 0.162997
v -0.562167 0.156019 0.299309
v -0.741171 0.257736 0.326292
v -0.745141 0.359452 0.295562
v -0.762638 0.460800 0.160122
v -0.819711 0.575129 -0.281661
v -0.826351 0.780292 -0.967113
v -0.877153 0.406490 -0.868733
v -0.872539 0.277170 -0.832966
v -0.867807 0.144535 -0.796329
v -0.864480 0.051275 -0.770582
v -0.819711 -0.059658 -0.281662
v -0.762638 0.054671 0.160122
v -0.745141 0.156019 0.295562
v -0.472802 0.149130 -0.016153
v -0.472802 0.185441 -0.027214
v -0.472802 0.221621 -0.075966
v -0.460045 0.262434 -0.234986
v -0.460045 0.247254 -0.366256
v -0.460045 0.198281 -0.432247
v -0.460045 0.149130 -0.447219
v -0.460045 0.099979 -0.432247
v -0.460045 0.051006 -0.366256
v -0.460045 0.035826 -0.234986
v -0.472802 0.076639 -0.075966
v -0.472802 0.112819 -0.027214
v -0.819711 0.381447 -0.281661
v -0.755813 0.257736 0.212949
v -0.866825 0.390745 -0.646351
v -0.767043 0.366499 0.126027
v -0.819711 0.142847 -0.281662
v -0.866825 0.127678 -0.646351
v -0.767043 0.150386 0.126027
v -0.682420 0.307297 -0.265659
v -0.682420 0.310922 -0.408990
v -0.668491 0.301471 -0.092028
v -0.682420 0.214295 -0.265659
v -0.682420 0.208383 -0.408990
v -0.668491 0.217234 -0.092029
v -0.759019 0.339868 0.188136
v -0.773147 0.421705 0.078772
v -0.819232 0.514022 -0.277957
v -0.857275 0.479686 -0.572434
v -0.876400 0.368911 -0.720470
v -0.880739 0.257736 -0.754058
v -0.876400 0.146560 -0.720470
v -0.857276 0.035785 -0.572434
v -0.819233 0.001449 -0.277957
v -0.773147 0.093766 0.078771
v -0.759019 0.175603 0.188136
v -0.174010 0.340286 -0.475786
v -0.470970 0.289035 -0.475786
v -0.174010 -0.021115 -0.475786
v -0.470970 -0.021115 -0.475786
v -0.841336 0.214767 -0.610748
v -0.709788 0.198111 -0.038848
v -0.841336 0.117605 -0.610747
v -0.709788 0.133846 -0.038848
v -1.338890 0.208749 0.459460
v -1.338889 0.208749 -0.340598
v -1.338889 0.131497 0.459461
v -1.338889 0.131497 -0.340598
v -2.364242 0.014869 -0.429404
v -2.364242 0.014869 -0.777775
v -2.354465 -0.031937 -0.429404
v -2.354465 -0.031937 -0.777775
v -2.491031 -0.014536 -0.624041
v -2.481322 -0.014536 -0.714283
v -2.481311 -0.061342 -0.622995
v -2.471602 -0.061342 -0.713237
v -0.709919 0.408680 -0.873217
v -0.768358 0.820499 -0.978957
v -0.712172 0.276041 -0.836358
v -0.714424 0.143402 -0.799500
v -0.716668 0.011241 -0.762774
v -0.918780 0.408680 -0.868317
v -0.862811 0.820499 -0.976710
v -0.914049 0.276041 -0.831694
v -0.909318 0.143402 -0.795071
v -0.904603 0.011241 -0.758581
v -0.758149 0.410489 -0.819625
v -0.867944 0.410482 -0.817047
v -0.863911 0.297482 -0.785794
v -0.760071 0.297284 -0.788139
v -0.859777 0.181586 -0.753780
v -0.762040 0.181380 -0.755944
v -0.804497 0.737106 -0.903478
v -0.763420 0.100099 -0.733354
v -0.823553 0.737109 -0.903011
v -0.856870 0.100095 -0.731283
v 0.000000 0.611128 0.157729
v 0.000000 0.620442 -0.946500
v 0.192410 0.559572 0.157729
v 0.197067 0.567638 -0.946500
v 0.333264 0.418718 0.157729
v 0.341330 0.423375 -0.946500
v 0.384820 0.226308 0.157729
v 0.394134 0.226308 -0.946500
v 0.341330 0.029241 -0.946500
v 0.197067 -0.115023 -0.946500
v -0.000000 -0.167827 -0.946500
v 0.000000 0.726308 0.005146
v 0.250000 0.659320 0.005146
v 0.433013 0.476308 0.005146
v 0.500000 0.226308 0.005146
v 0.433013 -0.023692 0.005146
v 0.250000 -0.206705 0.005146
v -0.000000 -0.273692 0.005146
v 0.000000 0.591860 0.246694
v 0.183747 0.542885 0.246694
v 0.318259 0.409084 0.246694
v 0.367494 0.226308 0.246694
v 0.250000 0.659320 -0.946500
v 0.000000 0.726308 -0.946500
v 0.433013 0.476308 -0.946500
v 0.500000 0.226308 -0.946500
v 0.433013 -0.023692 -0.946500
v 0.250000 -0.206705 -0.946500
v -0.000000 -0.273692 -0.946500
v 0.128456 0.448801 -0.554199
v 0.000000 0.483220 -0.554199
v 0.222493 0.354764 -0.554199
v 0.256913 0.226308 -0.554199
v 0.222493 0.097851 -0.554199
v 0.128456 0.003815 -0.554199
v -0.000000 -0.030605 -0.554199
v 0.684034 0.527608 -0.142754
v 0.686373 0.769899 -0.162195
v 0.660229 0.475818 0.081779
v 0.675062 0.745291 -0.055509
v 0.710865 0.528445 -0.139716
v 0.698018 0.770262 -0.160876
v 0.687060 0.476655 0.084817
v 0.686707 0.745654 -0.054191
v 0.322528 0.573698 -0.458662
v 0.594076 0.855860 -0.582424
v 0.322528 0.573698 -0.067271
v 0.594076 0.855860 -0.396457
v 0.356442 0.543149 -0.458662
v 0.608796 0.842601 -0.582424
v 0.356442 0.543149 -0.067271
v 0.608796 0.842601 -0.396457
v 0.000000 0.528706 1.247963
v 0.171701 0.482056 1.247963
v 0.299151 0.354606 1.247963
v 0.345801 0.180506 1.253877
v 0.000000 0.528706 0.655056
v 0.171701 0.482056 0.726197
v 0.299151 0.354606 0.810965
v 0.345801 0.180506 0.880926
v 0.388666 0.179044 1.236388
v 0.151651 0.070742 2.166312
v -0.000000 0.070742 2.167701
v 0.000000 0.518427 1.370182
v 0.000000 0.501144 1.532833
v -0.000000 0.458255 1.656187
v -0.000000 0.387847 1.800540
v -0.000000 0.287965 1.974369
v 0.165870 0.470078 1.370741
v 0.216428 0.234785 2.013680
v 0.164282 0.454948 1.559748
v 0.160882 0.413324 1.696030
v 0.157684 0.345579 1.846094
v 0.287464 0.348484 1.396774
v 0.276649 0.341438 1.625418
v 0.255170 0.311734 1.774921
v 0.232776 0.265033 1.913740
v 0.156297 0.263617 1.998920
v 0.388666 0.179044 0.864103
v 0.336606 0.166148 1.543449
v 0.224134 0.070742 2.133818
v 0.265637 0.079274 2.064848
v 0.301370 0.104015 1.951107
v 0.326107 0.135189 1.807649
v 0.157229 0.048200 2.225350
v -0.000000 0.048200 2.226985
v 0.377705 0.161929 1.534458
v 0.243633 0.048200 2.183486
v 0.293106 0.058371 2.105047
v 0.335701 0.087863 1.977238
v 0.365190 0.125025 1.813720
v 0.388666 -0.018814 1.237925
v 0.388666 -0.018814 0.864314
v 0.157229 -0.149658 2.225350
v -0.000000 -0.149658 2.226985
v 0.377705 -0.035929 1.541481
v 0.243633 -0.149658 2.183486
v 0.293106 -0.139487 2.105047
v 0.335701 -0.109995 1.977238
v 0.365190 -0.072834 1.813720
v 0.000000 0.587080 0.450599
v 0.181445 0.520439 0.450599
v 0.000000 0.480458 -0.353039
v 0.530602 0.179044 0.450599
v 0.530602 -0.018814 0.450599
v 0.174010 0.462133 -0.353039
v 0.470970 0.410881 -0.353039
v 0.530602 -0.018814 -0.353039
v 0.324809 0.258851 1.250002
v 0.324809 0.258851 0.852012
v 0.153742 0.157536 2.121122
v 0.314492 0.248199 1.478014
v 0.303851 0.228001 1.737156
v 0.280580 0.197488 1.890125
v 0.250849 0.162866 2.015948
v -0.000000 0.168492 2.115069
v 0.220667 0.144561 2.102941
v 0.452538 -0.018814 0.679984
v 0.452538 0.179044 0.679984
v 0.839189 0.347796 -0.600196
v 0.707641 0.325344 -0.028297
v 0.839189 0.234340 -0.600196
v 0.707641 0.238716 -0.028297
v 1.336743 0.344838 0.470012
v 1.336743 0.344838 -0.330047
v 1.336743 0.228232 0.470012
v 1.336743 0.228232 -0.330047
v 2.856980 1.103912 -0.418852
v 2.856980 1.103912 -0.767223
v 2.880235 1.058776 -0.418852
v 2.880235 1.058776 -0.767223
v 2.956927 1.155408 -0.518087
v 2.956927 1.155408 -0.667989
v 2.980182 1.110273 -0.518087
v 2.980182 1.110273 -0.667989
v 0.564057 0.257735 0.330236
v 0.562167 0.359451 0.299309
v 0.553837 0.460800 0.162997
v 0.526666 0.575129 -0.281628
v 0.804543 0.780288 -0.967647
v 0.751501 0.406499 -0.871684
v 0.753701 0.276943 -0.835649
v 0.755954 0.144300 -0.798805
v 0.757533 0.051279 -0.772953
v 0.526666 -0.059658 -0.281628
v 0.553837 0.054670 0.162997
v 0.562167 0.156019 0.299309
v 0.741171 0.257735 0.326292
v 0.745141 0.359451 0.295562
v 0.762638 0.460800 0.160122
v 0.819711 0.575129 -0.281661
v 0.826351 0.780292 -0.967113
v 0.877153 0.406490 -0.868733
v 0.872538 0.277170 -0.832966
v 0.867807 0.144535 -0.796329
v 0.864480 0.051275 -0.770582
v 0.819711 -0.059658 -0.281662
v 0.762638 0.054670 0.160122
v 0.745140 0.156019 0.295562
v 0.472802 0.149130 -0.016153
v 0.472802 0.185441 -0.027214
v 0.472802 0.221620 -0.075966
v 0.460045 0.262434 -0.234986
v 0.460045 0.247254 -0.366256
v 0.460045 0.198280 -0.432247
v 0.460045 0.149130 -0.447219
v 0.460045 0.099979 -0.432247
v 0.460045 0.051005 -0.366256
v 0.460045 0.035826 -0.234986
v 0.472802 0.076639 -0.075966
v 0.472802 0.112819 -0.027214
v 0.819711 0.381447 -0.281661
v 0.755813 0.257735 0.212949
v 0.866825 0.390745 -0.646351
v 0.767043 0.366499 0.126027
v 0.819711 0.142847 -0.281662
v 0.866825 0.127678 -0.646351
v 0.767042 0.150386 0.126027
v 0.682420 0.307297 -0.265659
v 0.682420 0.310921 -0.408990
v 0.668491 0.301471 -0.092028
v 0.682420 0.214295 -0.265659
v 0.682420 0.208382 -0.408990
v 0.668491 0.217234 -0.092029
v 0.759019 0.339868 0.188136
v 0.773147 0.421705 0.078772
v 0.819232 0.514022 -0.277957
v 0.857275 0.479686 -0.572434
v 0.876400 0.368911 -0.720470
v 0.880739 0.257735 -0.754058
v 0.876400 0.146560 -0.720470
v 0.857275 0.035785 -0.572434
v 0.819232 0.001449 -0.277957
v 0.773147 0.093766 0.078771
v 0.759019 0.175602 0.188136
v -0.000000 0.358612 -0.475786
v 0.174010 0.340286 -0.475786
v 0.470970 0.289035 -0.475786
v -0.000000 -0.021115 -0.475786
v 0.174010 -0.021115 -0.475786
v 0.470970 -0.021115 -0.475786
v 0.841336 0.214767 -0.610748
v 0.709788 0.198111 -0.038848
v 0.841336 0.117605 -0.610747
v 0.709788 0.133846 -0.038848
v 1.338890 0.208749 0.459460
v 1.338889 0.208749 -0.340598
v 1.338889 0.131496 0.459461
v 1.338889 0.131496 -0.340598
v 2.364242 0.014869 -0.429404
v 2.364242 0.014869 -0.777775
v 2.354465 -0.031938 -0.429404
v 2.354465 -0.031938 -0.777775
v 2.491031 -0.014536 -0.624041
v 2.481322 -0.014536 -0.714283
v 2.481311 -0.061343 -0.622995
v 2.471602 -0.061343 -0.713237
v 0.709919 0.408679 -0.873217
v 0.768358 0.820498 -0.978957
v 0.712171 0.276040 -0.836358
v 0.714424 0.143401 -0.799500
v 0.716668 0.011241 -0.762774
v 0.918780 0.408679 -0.868317
v 0.862812 0.820498 -0.976710
v 0.914049 0.276040 -0.831694
v 0.909318 0.143401 -0.795071
v 0.904603 0.011241 -0.758581
v 0.758149 0.410489 -0.819625
v 0.867944 0.410481 -0.817047
v 0.863911 0.297482 -0.785794
v 0.760071 0.297283 -0.788139
v 0.859777 0.181586 -0.753780
v 0.762040 0.181380 -0.755944
v 0.804497 0.737105 -0.903478
v 0.763420 0.100099 -0.733354
v 0.823553 0.737109 -0.903011
v 0.856870 0.100095 -0.731283
vt 0.6948 0.6066
vt 0.6948 0.7556
vt 0.7340 0.7556
vt 0.7340 0.6066
vt 0.7626 0.7556
vt 0.7626 0.6066
vt 0.7489 0.0387
vt 0.7489 0.1877
vt 0.7880 0.1877
vt 0.7880 0.0387
vt 0.8272 0.1877
vt 0.8272 0.0387
vt 0.8558 0.1877
vt 0.8558 0.0387
vt 0.6409 0.8079
vt 0.6409 0.9569
vt 0.6018 0.9569
vt 0.6018 0.8079
vt 0.7579 0.0148
vt 0.7880 0.0148
vt 0.9509 0.9730
vt 0.9335 0.9777
vt 0.9335 0.9372
vt 0.9509 0.9418
vt 0.6948 0.5827
vt 0.7249 0.5827
vt 0.7236 0.5687
vt 0.6948 0.5687
vt 0.7880 0.0008
vt 0.7594 0.0008
vt 0.7470 0.5827
vt 0.7447 0.5687
vt 0.5061 0.5837
vt 0.5337 0.5996
vt 0.5454 0.5879
vt 0.5103 0.5677
vt 0.5497 0.6273
vt 0.5657 0.6230
vt 0.5497 0.6592
vt 0.5657 0.6635
vt 0.5337 0.6869
vt 0.5454 0.6986
vt 0.5061 0.7029
vt 0.5103 0.7189
vt 0.4741 0.7029
vt 0.4698 0.7189
vt 0.5243 0.2740
vt 0.5347 0.2920
vt 0.5916 0.2351
vt 0.5736 0.2247
vt 0.5527 0.2247
vt 0.5347 0.2351
vt 0.5243 0.2532
vt 0.7283 0.2247
vt 0.7283 0.2473
vt 0.6668 0.2580
vt 0.6668 0.2433
vt 0.6651 0.2247
vt 0.6651 0.2473
vt 0.6037 0.2580
vt 0.6037 0.2433
vt 0.9091 0.5092
vt 0.9091 0.4783
vt 0.8476 0.4891
vt 0.8476 0.5092
vt 0.7283 0.2782
vt 0.7283 0.3090
vt 0.6668 0.2983
vt 0.6668 0.2782
vt 0.6651 0.2782
vt 0.6037 0.2782
vt 0.8991 0.9024
vt 0.9123 0.9134
vt 0.9123 0.9607
vt 0.8846 0.9376
vt 0.5698 0.5793
vt 0.5716 0.5793
vt 0.5716 0.6214
vt 0.5674 0.6215
vt 0.0284 0.9175
vt 0.0153 0.9064
vt 0.0008 0.9416
vt 0.0284 0.9649
vt 0.2209 0.4665
vt 0.2209 0.4683
vt 0.2589 0.4699
vt 0.2589 0.4657
vt 0.8319 0.8413
vt 0.8319 0.8767
vt 0.8277 0.8767
vt 0.8277 0.8413
vt 0.2684 0.2303
vt 0.2684 0.2471
vt 0.2703 0.2471
vt 0.2703 0.2303
vt 0.9549 0.4783
vt 0.9549 0.5074
vt 0.9108 0.5590
vt 0.9108 0.4977
vt 0.1111 0.9431
vt 0.1111 0.9400
vt 0.1724 0.9380
vt 0.1724 0.9451
vt 0.2622 0.3943
vt 0.2426 0.3727
vt 0.2209 0.4186
vt 0.2622 0.4640
vt 0.6618 0.9399
vt 0.6618 0.9430
vt 0.7230 0.9450
vt 0.7230 0.9379
vt 0.7561 0.8186
vt 0.7561 0.7573
vt 0.7614 0.7573
vt 0.7614 0.8186
vt 0.2707 0.2286
vt 0.2707 0.1995
vt 0.2684 0.1995
vt 0.2684 0.2286
vt 0.8336 0.9841
vt 0.8536 0.9708
vt 0.8536 0.9024
vt 0.8336 0.9024
vt 0.5974 0.5983
vt 0.6097 0.5938
vt 0.6097 0.5354
vt 0.5975 0.5359
vt 0.3875 0.4672
vt 0.3875 0.5256
vt 0.3942 0.5282
vt 0.3942 0.4699
vt 0.3749 0.3402
vt 0.3805 0.3580
vt 0.3859 0.3539
vt 0.3792 0.3339
vt 0.6099 0.5964
vt 0.6409 0.5964
vt 0.6409 0.5379
vt 0.6100 0.5381
vt 0.8856 0.2093
vt 0.8856 0.1894
vt 0.8623 0.1912
vt 0.8664 0.2102
vt 0.9536 0.7097
vt 0.9657 0.7076
vt 0.9624 0.6623
vt 0.9509 0.6741
vt 0.7489 0.2121
vt 0.7680 0.2117
vt 0.7657 0.2023
vt 0.7517 0.2017
vt 0.8665 0.2362
vt 0.8368 0.2105
vt 0.8410 0.2362
vt 0.8155 0.2110
vt 0.8217 0.2362
vt 0.7920 0.2115
vt 0.7991 0.2362
vt 0.9537 0.5888
vt 0.9549 0.5750
vt 0.9426 0.5906
vt 0.9398 0.6067
vt 0.7814 0.1998
vt 0.8265 0.1929
vt 0.8031 0.1963
vt 0.7498 0.2362
vt 0.7719 0.2362
vt 0.9620 0.6207
vt 0.9490 0.6334
vt 0.9641 0.5978
vt 0.9508 0.6091
vt 0.9657 0.5796
vt 0.8856 0.2362
vt 0.3860 0.4218
vt 0.3925 0.4232
vt 0.3844 0.3804
vt 0.3905 0.3795
vt 0.3333 0.3241
vt 0.3571 0.3243
vt 0.3579 0.3150
vt 0.3333 0.3148
vt 0.3684 0.3294
vt 0.3715 0.3216
vt 0.3727 0.8934
vt 0.3764 0.9400
vt 0.4071 0.9355
vt 0.4032 0.8880
vt 0.9388 0.7119
vt 0.9473 0.7798
vt 0.9614 0.7716
vt 0.3746 0.8231
vt 0.3723 0.8493
vt 0.4030 0.8450
vt 0.4053 0.8188
vt 0.3763 0.7903
vt 0.3764 0.8026
vt 0.4071 0.7984
vt 0.4070 0.7860
vt 0.7771 0.5000
vt 0.8018 0.5000
vt 0.8018 0.5310
vt 0.7771 0.5310
vt 0.8153 0.5000
vt 0.8153 0.5310
vt 0.5824 0.6047
vt 0.6098 0.6611
vt 0.6098 0.6252
vt 0.0693 0.0371
vt 0.0825 0.0570
vt 0.1257 0.0555
vt 0.1257 0.0008
vt 0.0937 0.0839
vt 0.1257 0.0839
vt 0.6408 0.6253
vt 0.6408 0.6612
vt 0.2515 0.0567
vt 0.2515 0.0102
vt 0.5733 0.7869
vt 0.6406 0.7870
vt 0.2515 0.0839
vt 0.9352 0.6292
vt 0.9335 0.6530
vt 0.9369 0.6886
vt 0.9293 0.9375
vt 0.9140 0.9375
vt 0.9157 0.9134
vt 0.9293 0.9137
vt 0.9657 0.5687
vt 0.9177 0.9029
vt 0.9293 0.9024
vt 0.0008 0.0570
vt 0.0008 0.0839
vt 0.0990 0.7790
vt 0.0161 0.7396
vt 0.0008 0.8269
vt 0.0990 0.9047
vt 0.4297 0.7206
vt 0.5127 0.7601
vt 0.5127 0.8857
vt 0.4145 0.8079
vt 0.7390 0.5493
vt 0.7390 0.5357
vt 0.8375 0.5327
vt 0.8375 0.5510
vt 0.9653 0.4680
vt 0.9814 0.4766
vt 0.9814 0.2022
vt 0.9734 0.2020
vt 0.0975 0.9064
vt 0.0797 0.9065
vt 0.0792 0.9844
vt 0.0975 0.9843
vt 0.2193 0.4445
vt 0.1722 0.4720
vt 0.1935 0.4777
vt 0.2137 0.4658
vt 0.9992 0.4766
vt 0.9831 0.4680
vt 0.9912 0.2020
vt 0.9992 0.2022
vt 0.2193 0.1687
vt 0.1111 0.2319
vt 0.0008 0.2312
vt 0.1094 0.1687
vt 0.1094 0.4476
vt 0.0621 0.4748
vt 0.9168 0.2825
vt 0.9098 0.2825
vt 0.9098 0.3060
vt 0.9168 0.3060
vt 0.1038 0.4689
vt 0.0834 0.4806
vt 0.3899 0.9593
vt 0.3820 0.9593
vt 0.3820 0.9417
vt 0.3899 0.9417
vt 0.3916 0.9593
vt 0.3996 0.9593
vt 0.3996 0.9417
vt 0.3916 0.9417
vt 0.4042 0.5592
vt 0.4044 0.5802
vt 0.4124 0.5791
vt 0.4123 0.5607
vt 0.2233 0.5698
vt 0.2691 0.5726
vt 0.2645 0.5030
vt 0.2319 0.5006
vt 0.9212 0.0218
vt 0.9535 0.0271
vt 0.9519 0.0968
vt 0.9066 0.0900
vt 0.1011 0.7268
vt 0.1015 0.6663
vt 0.1094 0.6754
vt 0.1091 0.7283
vt 0.2543 0.6811
vt 0.2691 0.6817
vt 0.9257 0.0008
vt 0.9539 0.0057
vt 0.3684 0.7426
vt 0.3971 0.7426
vt 0.3964 0.7586
vt 0.3687 0.7586
vt 0.1015 0.7845
vt 0.1014 0.7694
vt 0.1093 0.7655
vt 0.1094 0.7787
vt 0.4048 0.4987
vt 0.4128 0.5079
vt 0.3971 0.7745
vt 0.3684 0.7745
vt 0.2630 0.4817
vt 0.2345 0.4794
vt 0.9539 0.1727
vt 0.9247 0.1689
vt 0.6866 0.2067
vt 0.6886 0.1927
vt 0.6579 0.1439
vt 0.6486 0.1462
vt 0.7385 0.2126
vt 0.7305 0.1974
vt 0.7194 0.2050
vt 0.7247 0.2220
vt 0.7434 0.1162
vt 0.7345 0.1196
vt 0.7375 0.1773
vt 0.7472 0.1876
vt 0.7472 0.0008
vt 0.7154 0.0773
vt 0.6312 0.1165
vt 0.5866 0.1382
vt 0.5782 0.1193
vt 0.6350 0.0008
vt 0.5743 0.2074
vt 0.5664 0.1707
vt 0.5741 0.1763
vt 0.5959 0.2230
vt 0.6125 0.2229
vt 0.5800 0.1762
vt 0.5849 0.1729
vt 0.6263 0.2134
vt 0.5423 0.0595
vt 0.5531 0.1164
vt 0.5489 0.1286
vt 0.5243 0.0712
vt 0.5678 0.1118
vt 0.5785 0.0360
vt 0.5880 0.1639
vt 0.6350 0.1883
vt 0.5528 0.1489
vt 0.5363 0.1464
vt 0.5597 0.1118
vt 0.5604 0.0478
vt 0.9913 0.5687
vt 0.9716 0.6006
vt 0.9703 0.6279
vt 0.9913 0.6331
vt 0.6367 0.0716
vt 0.6491 0.0983
vt 0.6587 0.0709
vt 0.6547 0.0599
vt 0.6728 0.0482
vt 0.6737 0.0607
vt 0.6919 0.0604
vt 0.6908 0.0365
vt 0.9674 0.6501
vt 0.9913 0.6907
vt 0.9795 0.0652
vt 0.9585 0.0600
vt 0.9598 0.0327
vt 0.9795 0.0008
vt 0.7059 0.2052
vt 0.7081 0.2222
vt 0.6594 0.0829
vt 0.6826 0.1145
vt 0.6979 0.1097
vt 0.6986 0.0705
vt 0.9795 0.1228
vt 0.9556 0.0822
vt 0.7315 0.1869
vt 0.7115 0.1574
vt 0.6989 0.1614
vt 0.6992 0.1971
vt 0.7042 0.1312
vt 0.6903 0.1356
vt 0.6789 0.1366
vt 0.7145 0.1253
vt 0.2708 0.0839
vt 0.2708 0.0567
vt 0.2708 0.0102
vt 0.2139 0.7489
vt 0.2110 0.7761
vt 0.2705 0.7761
vt 0.2705 0.7489
vt 0.2219 0.7024
vt 0.2705 0.7024
vt 0.5924 0.8062
vt 0.6409 0.8062
vt 0.3707 0.8254
vt 0.2877 0.7860
vt 0.2725 0.8733
vt 0.3707 0.9511
vt 0.8628 0.3115
vt 0.9458 0.3509
vt 0.9458 0.4766
vt 0.8476 0.3988
vt 0.6426 0.9358
vt 0.6426 0.9258
vt 0.7411 0.9241
vt 0.7411 0.9362
vt 0.1094 0.4823
vt 0.0975 0.4846
vt 0.1019 0.6456
vt 0.1094 0.6457
vt 0.8257 0.9425
vt 0.8257 0.9273
vt 0.7478 0.9295
vt 0.7478 0.9416
vt 0.7373 0.5240
vt 0.6961 0.5597
vt 0.7156 0.5670
vt 0.7273 0.5589
vt 0.9812 0.0031
vt 0.9931 0.0008
vt 0.9931 0.1642
vt 0.9856 0.1641
vt 0.7373 0.3115
vt 0.6426 0.3936
vt 0.2725 0.6124
vt 0.3667 0.5299
vt 0.3667 0.7412
vt 0.3257 0.7771
vt 0.0992 0.9205
vt 0.1065 0.9210
vt 0.1079 0.9070
vt 0.1006 0.9064
vt 0.3570 0.7761
vt 0.3454 0.7843
vt 0.1006 0.9511
vt 0.1079 0.9518
vt 0.1008 0.6645
vt 0.1083 0.6646
vt 0.1730 0.8757
vt 0.2315 0.8840
vt 0.2378 0.8783
vt 0.1733 0.8692
vt 0.1527 0.8760
vt 0.1526 0.8695
vt 0.1319 0.8764
vt 0.1318 0.8699
vt 0.1174 0.8766
vt 0.1111 0.8702
vt 0.2315 0.8874
vt 0.1730 0.8954
vt 0.1733 0.9019
vt 0.2378 0.8931
vt 0.1527 0.8947
vt 0.1526 0.9012
vt 0.1320 0.8939
vt 0.1318 0.9004
vt 0.1174 0.8934
vt 0.1111 0.8997
vt 0.1559 0.8770
vt 0.1559 0.8933
vt 0.1736 0.8939
vt 0.1736 0.8767
vt 0.1377 0.8773
vt 0.1378 0.8927
vt 0.1250 0.8776
vt 0.1250 0.8922
vt 0.2248 0.8870
vt 0.2248 0.8840
vt 0.5343 0.3041
vt 0.5343 0.3075
vt 0.5243 0.3073
vt 0.5243 0.3043
vt 0.1013 0.7478
vt 0.1092 0.7467
vt 0.4047 0.6018
vt 0.4126 0.5979
vt 0.4048 0.6169
vt 0.4128 0.6111
vt 0.6557 0.6066
vt 0.6557 0.7556
vt 0.7390 0.3493
vt 0.7676 0.3493
vt 0.7676 0.4983
vt 0.7390 0.4983
vt 0.8068 0.3493
vt 0.8068 0.4983
vt 0.8459 0.3493
vt 0.8459 0.4983
vt 0.5340 0.8079
vt 0.5626 0.8079
vt 0.5626 0.9569
vt 0.5340 0.9569
vt 0.7767 0.3254
vt 0.8068 0.3254
vt 0.6601 0.9425
vt 0.6601 0.9737
vt 0.6426 0.9784
vt 0.6426 0.9379
vt 0.6647 0.5827
vt 0.6660 0.5687
vt 0.7782 0.3115
vt 0.8068 0.3115
vt 0.6450 0.5687
vt 0.6426 0.5827
vt 0.4698 0.5677
vt 0.4741 0.5837
vt 0.4347 0.5879
vt 0.4464 0.5996
vt 0.4145 0.6230
vt 0.4305 0.6273
vt 0.4145 0.6635
vt 0.4305 0.6592
vt 0.4347 0.6986
vt 0.4464 0.6869
vt 0.5527 0.3024
vt 0.5736 0.3024
vt 0.5916 0.2920
vt 0.6020 0.2740
vt 0.6020 0.2532
vt 0.9091 0.5400
vt 0.8476 0.5293
vt 0.8476 0.5440
vt 0.9091 0.5626
vt 0.8257 0.9030
vt 0.7643 0.8923
vt 0.7643 0.9070
vt 0.8257 0.9256
vt 0.8257 0.8722
vt 0.7643 0.8722
vt 0.8257 0.8413
vt 0.7643 0.8521
vt 0.6651 0.3090
vt 0.6037 0.2983
vt 0.8698 0.9024
vt 0.8553 0.9376
vt 0.8829 0.9607
vt 0.8829 0.9134
vt 0.5698 0.5775
vt 0.5674 0.5354
vt 0.5716 0.5355
vt 0.5716 0.5776
vt 0.0576 0.9175
vt 0.0576 0.9649
vt 0.0301 0.9416
vt 0.0445 0.9064
vt 0.2209 0.4749
vt 0.2589 0.4758
vt 0.2589 0.4716
vt 0.2209 0.4731
vt 0.7603 0.8556
vt 0.7561 0.8556
vt 0.7561 0.8202
vt 0.7603 0.8203
vt 0.2684 0.2656
vt 0.2703 0.2657
vt 0.2703 0.2489
vt 0.2684 0.2488
vt 0.4586 0.8874
vt 0.4145 0.9068
vt 0.4145 0.9681
vt 0.4586 0.9165
vt 0.8575 0.1764
vt 0.9188 0.1743
vt 0.9188 0.1815
vt 0.8575 0.1795
vt 0.9286 0.2109
vt 0.9286 0.2806
vt 0.8873 0.2353
vt 0.9090 0.1894
vt 0.2354 0.9400
vt 0.1741 0.9380
vt 0.1741 0.9451
vt 0.2354 0.9431
vt 0.2692 0.4340
vt 0.2639 0.4340
vt 0.2639 0.3727
vt 0.2692 0.3727
vt 0.2684 0.1978
vt 0.2707 0.1978
vt 0.2707 0.1687
vt 0.2684 0.1687
vt 0.9566 0.5600
vt 0.9566 0.4783
vt 0.9766 0.4783
vt 0.9766 0.5467
vt 0.7884 0.6316
vt 0.7885 0.5693
vt 0.8007 0.5687
vt 0.8006 0.6271
vt 0.2792 0.4672
vt 0.2725 0.4699
vt 0.2725 0.5282
vt 0.2792 0.5256
vt 0.2917 0.3402
vt 0.2874 0.3339
vt 0.2807 0.3539
vt 0.2861 0.3580
vt 0.8009 0.6298
vt 0.8010 0.5715
vt 0.8319 0.5713
vt 0.8319 0.6298
vt 0.8856 0.2631
vt 0.8664 0.2622
vt 0.8623 0.2812
vt 0.8856 0.2831
vt 0.3885 0.6709
vt 0.3858 0.6352
vt 0.3972 0.6235
vt 0.4006 0.6687
vt 0.7489 0.2603
vt 0.7517 0.2708
vt 0.7657 0.2701
vt 0.7680 0.2607
vt 0.8368 0.2619
vt 0.8155 0.2614
vt 0.7920 0.2609
vt 0.3886 0.5500
vt 0.3747 0.5678
vt 0.3775 0.5517
vt 0.3897 0.5361
vt 0.7814 0.2727
vt 0.8265 0.2795
vt 0.8031 0.2762
vt 0.3839 0.5946
vt 0.3969 0.5818
vt 0.3856 0.5702
vt 0.3990 0.5589
vt 0.4006 0.5408
vt 0.2806 0.4218
vt 0.2742 0.4232
vt 0.2761 0.3795
vt 0.2822 0.3804
vt 0.3087 0.3150
vt 0.3096 0.3243
vt 0.2982 0.3294
vt 0.2952 0.3216
vt 0.9338 0.8889
vt 0.9644 0.8835
vt 0.9683 0.9310
vt 0.9376 0.9355
vt 0.3737 0.6730
vt 0.3962 0.7327
vt 0.3822 0.7409
vt 0.9358 0.8186
vt 0.9664 0.8143
vt 0.9642 0.8405
vt 0.9335 0.8448
vt 0.9375 0.7858
vt 0.9681 0.7815
vt 0.9683 0.7939
vt 0.9376 0.7981
vt 0.7525 0.5310
vt 0.7525 0.5000
vt 0.7390 0.5310
vt 0.7390 0.5000
vt 0.8008 0.6586
vt 0.8008 0.6945
vt 0.7734 0.6381
vt 0.0693 0.1308
vt 0.1257 0.1670
vt 0.1257 0.1123
vt 0.0825 0.1108
vt 0.8318 0.6586
vt 0.8318 0.6946
vt 0.2515 0.1577
vt 0.2515 0.1112
vt 0.8316 0.8204
vt 0.7643 0.8203
vt 0.3701 0.5903
vt 0.3684 0.6141
vt 0.3718 0.6498
vt 0.9293 0.9612
vt 0.9157 0.9615
vt 0.4006 0.5299
vt 0.9293 0.9726
vt 0.9177 0.9720
vt 0.0008 0.1108
vt 0.9318 0.6944
vt 0.9318 0.5687
vt 0.8336 0.6465
vt 0.8488 0.7339
vt 0.1263 0.8675
vt 0.1111 0.7802
vt 0.2093 0.7024
vt 0.2093 0.8280
vt 0.8285 0.3074
vt 0.7300 0.3090
vt 0.7300 0.2908
vt 0.8285 0.2938
vt 0.9475 0.2107
vt 0.9557 0.4766
vt 0.9636 0.4765
vt 0.9636 0.2020
vt 0.0775 0.9844
vt 0.0775 0.9065
vt 0.0593 0.9064
vt 0.0598 0.9843
vt 0.5226 0.0340
vt 0.5171 0.0127
vt 0.4968 0.0008
vt 0.4755 0.0065
vt 0.5304 0.7206
vt 0.5304 0.9950
vt 0.5225 0.9952
vt 0.5144 0.7292
vt 0.5226 0.3098
vt 0.4145 0.2466
vt 0.4128 0.0792
vt 0.3150 0.3106
vt 0.2725 0.2765
vt 0.3150 0.0008
vt 0.8389 0.5000
vt 0.8389 0.5235
vt 0.8319 0.5235
vt 0.8319 0.5000
vt 0.2931 0.3131
vt 0.2748 0.2984
vt 0.3803 0.9417
vt 0.3803 0.9593
vt 0.3723 0.9593
vt 0.3723 0.9417
vt 0.5567 0.7877
vt 0.5567 0.8053
vt 0.5647 0.8053
vt 0.5647 0.7877
vt 0.4042 0.6790
vt 0.4123 0.6805
vt 0.4124 0.6989
vt 0.4044 0.7001
vt 0.2209 0.2806
vt 0.2295 0.3498
vt 0.2621 0.3473
vt 0.2667 0.2778
vt 0.8722 0.1517
vt 0.8575 0.0835
vt 0.9029 0.0767
vt 0.9044 0.1464
vt 0.1011 0.8467
vt 0.1091 0.8482
vt 0.1094 0.7954
vt 0.1015 0.7862
vt 0.2520 0.1693
vt 0.2667 0.1687
vt 0.8766 0.1727
vt 0.9049 0.1678
vt 0.5302 0.5354
vt 0.5462 0.5356
vt 0.5462 0.5634
vt 0.5302 0.5640
vt 0.1015 0.9044
vt 0.1094 0.8987
vt 0.1093 0.8854
vt 0.1014 0.8893
vt 0.4048 0.6186
vt 0.4128 0.6277
vt 0.5621 0.5354
vt 0.5621 0.5640
vt 0.2321 0.3710
vt 0.2607 0.3687
vt 0.8757 0.0046
vt 0.9049 0.0008
vt 0.1610 0.6852
vt 0.1230 0.6247
vt 0.1323 0.6224
vt 0.1630 0.6713
vt 0.2129 0.6911
vt 0.1991 0.7005
vt 0.1938 0.6835
vt 0.2049 0.6760
vt 0.2178 0.5947
vt 0.2216 0.6661
vt 0.2119 0.6558
vt 0.2089 0.5981
vt 0.2216 0.4794
vt 0.1898 0.5558
vt 0.6371 0.4272
vt 0.6409 0.3115
vt 0.5842 0.4300
vt 0.5926 0.4489
vt 0.5803 0.5181
vt 0.6018 0.5337
vt 0.5800 0.4869
vt 0.5723 0.4813
vt 0.6185 0.5335
vt 0.6322 0.5241
vt 0.5909 0.4835
vt 0.5860 0.4869
vt 0.5483 0.3701
vt 0.5302 0.3818
vt 0.5548 0.4392
vt 0.5591 0.4270
vt 0.5844 0.3467
vt 0.5737 0.4224
vt 0.6409 0.4990
vt 0.5940 0.4745
vt 0.5423 0.4570
vt 0.5587 0.4595
vt 0.5663 0.3584
vt 0.5657 0.4225
vt 0.9938 0.9034
vt 0.9938 0.8391
vt 0.9728 0.8443
vt 0.9741 0.8715
vt 0.1111 0.5501
vt 0.1291 0.5385
vt 0.1331 0.5494
vt 0.1236 0.5768
vt 0.1472 0.5267
vt 0.1653 0.5150
vt 0.1663 0.5389
vt 0.1481 0.5392
vt 0.9938 0.7815
vt 0.9700 0.8220
vt 0.2705 0.9091
vt 0.2705 0.9735
vt 0.2508 0.9416
vt 0.2495 0.9144
vt 0.1825 0.7007
vt 0.1804 0.6837
vt 0.1338 0.5614
vt 0.1731 0.5490
vt 0.1724 0.5882
vt 0.1570 0.5930
vt 0.2705 0.8516
vt 0.2466 0.8921
vt 0.2059 0.6654
vt 0.1737 0.6756
vt 0.1733 0.6399
vt 0.1859 0.6359
vt 0.1786 0.6097
vt 0.1647 0.6141
vt 0.1533 0.6151
vt 0.1889 0.6039
vt 0.2708 0.1112
vt 0.2708 0.1577
vt 0.2139 0.8034
vt 0.2705 0.8034
vt 0.2219 0.8499
vt 0.2705 0.8499
vt 0.8319 0.8396
vt 0.7834 0.8396
vt 0.7408 0.8829
vt 0.7408 0.7573
vt 0.6426 0.8351
vt 0.6579 0.9224
vt 0.8488 0.9007
vt 0.8336 0.8133
vt 0.9318 0.7356
vt 0.9318 0.8612
vt 0.7390 0.5530
vt 0.8375 0.5526
vt 0.8375 0.5647
vt 0.7390 0.5631
vt 0.4128 0.4971
vt 0.4128 0.3337
vt 0.4053 0.3338
vt 0.4009 0.4948
vt 0.9081 0.2908
vt 0.8302 0.2917
vt 0.8302 0.3038
vt 0.9081 0.3060
vt 0.0955 0.5254
vt 0.0855 0.4904
vt 0.0738 0.4823
vt 0.0543 0.4897
vt 0.7425 0.9184
vt 0.7469 0.7574
vt 0.7544 0.7573
vt 0.7544 0.9207
vt 0.0955 0.7379
vt 0.0008 0.6558
vt 0.5286 0.4083
vt 0.4491 0.5621
vt 0.4145 0.5200
vt 0.4491 0.3115
vt 0.4040 0.7525
vt 0.4055 0.7384
vt 0.4128 0.7390
vt 0.4113 0.7531
vt 0.4285 0.5660
vt 0.4183 0.5560
vt 0.4055 0.7831
vt 0.4128 0.7839
vt 0.4116 0.3148
vt 0.4042 0.3149
vt 0.1759 0.9101
vt 0.1756 0.9036
vt 0.1111 0.9127
vt 0.1174 0.9184
vt 0.1962 0.9104
vt 0.1964 0.9039
vt 0.2170 0.9108
vt 0.2171 0.9043
vt 0.2316 0.9110
vt 0.2378 0.9046
vt 0.1174 0.9218
vt 0.1111 0.9275
vt 0.1756 0.9363
vt 0.1759 0.9298
vt 0.1964 0.9356
vt 0.1962 0.9291
vt 0.2171 0.9348
vt 0.2169 0.9283
vt 0.2378 0.9341
vt 0.2316 0.9278
vt 0.1930 0.9114
vt 0.1753 0.9111
vt 0.1753 0.9283
vt 0.1930 0.9277
vt 0.2112 0.9117
vt 0.2111 0.9271
vt 0.2239 0.9120
vt 0.2239 0.9266
vt 0.1242 0.9184
vt 0.1242 0.9214
vt 0.2706 0.4758
vt 0.2605 0.4756
vt 0.2605 0.4726
vt 0.2706 0.4723
vt 0.1013 0.8677
vt 0.1092 0.8666
vt 0.4126 0.7177
vt 0.4047 0.7216
vt 0.4128 0.7310
vt 0.4048 0.7367
vt 0.9569 0.9683
vt 0.9562 0.9532
vt 0.9526 0.9527
vt 0.9534 0.9694
vt 0.9604 0.9688
vt 0.9597 0.9528
vt 0.9570 0.9699
vt 0.9562 0.9523
vt 0.9919 0.4798
vt 0.9856 0.4901
vt 0.9812 0.4896
vt 0.9882 0.4783
vt 0.9604 0.9389
vt 0.9569 0.9400
vt 0.7400 0.2247
vt 0.7328 0.2367
vt 0.7372 0.2371
vt 0.7438 0.2261
vt 0.9534 0.9383
vt 0.9570 0.9372
vt 0.9829 0.5014
vt 0.9783 0.5019
vt 0.9776 0.1946
vt 0.9754 0.1850
vt 0.9707 0.1866
vt 0.9728 0.1958
vt 0.7300 0.2494
vt 0.7346 0.2488
vt 0.5502 0.7978
vt 0.5480 0.7878
vt 0.5527 0.7862
vt 0.5550 0.7966
vt 0.9830 0.5126
vt 0.9784 0.5139
vt 0.9716 0.1746
vt 0.9670 0.1765
vt 0.7303 0.2617
vt 0.7349 0.2604
vt 0.5441 0.7770
vt 0.5487 0.7752
vt 0.9851 0.5229
vt 0.9806 0.5248
vt 0.9673 0.1644
vt 0.9627 0.1663
vt 0.7326 0.2727
vt 0.7371 0.2707
vt 0.5396 0.7661
vt 0.5442 0.7643
vt 0.9883 0.5315
vt 0.9840 0.5340
vt 0.9635 0.1550
vt 0.9588 0.1567
vt 0.7361 0.2816
vt 0.7404 0.2791
vt 0.5355 0.7559
vt 0.5402 0.7542
vt 0.9919 0.5377
vt 0.9880 0.5407
vt 0.9610 0.1471
vt 0.9561 0.1480
vt 0.7399 0.2878
vt 0.7438 0.2846
vt 0.5326 0.7463
vt 0.5375 0.7454
vt 0.2705 0.4688
vt 0.2690 0.4629
vt 0.2641 0.4638
vt 0.2659 0.4705
vt 0.9605 0.1411
vt 0.9556 0.1404
vt 0.3979 0.5273
vt 0.3964 0.5219
vt 0.4013 0.5210
vt 0.4025 0.5256
vt 0.5321 0.7376
vt 0.5370 0.7384
vt 0.2688 0.4557
vt 0.2639 0.4555
vt 0.9624 0.1366
vt 0.9583 0.1338
vt 0.3962 0.5159
vt 0.4011 0.5160
vt 0.5352 0.7302
vt 0.5393 0.7330
vt 0.2695 0.4470
vt 0.2646 0.4463
vt 0.9677 0.1325
vt 0.9649 0.1286
vt 0.3967 0.5084
vt 0.4017 0.5090
vt 0.5422 0.7247
vt 0.5450 0.7286
vt 0.2705 0.4365
vt 0.2656 0.4357
vt 0.9776 0.1288
vt 0.9757 0.1245
vt 0.3976 0.4987
vt 0.4025 0.4995
vt 0.5531 0.7206
vt 0.5550 0.7249
vt 0.9185 0.3039
vt 0.9186 0.2836
vt 0.9220 0.2828
vt 0.9220 0.3042
vt 0.9221 0.3043
vt 0.9221 0.2833
vt 0.9255 0.3046
vt 0.9255 0.2825
vt 0.2268 0.6844
vt 0.2269 0.6962
vt 0.2304 0.6975
vt 0.2304 0.6838
vt 0.2233 0.6840
vt 0.2233 0.6970
vt 0.2268 0.6834
vt 0.2268 0.6983
vt 0.9852 0.6994
vt 0.9792 0.6990
vt 0.9770 0.6953
vt 0.9859 0.6957
vt 0.9870 0.6964
vt 0.9793 0.6960
vt 0.9877 0.6928
vt 0.9772 0.6924
vt 0.9753 0.7030
vt 0.9710 0.7012
vt 0.8458 0.5254
vt 0.8454 0.5183
vt 0.8408 0.5187
vt 0.8411 0.5245
vt 0.9702 0.6991
vt 0.9745 0.7009
vt 0.8256 0.5301
vt 0.8252 0.5214
vt 0.8298 0.5210
vt 0.8302 0.5310
vt 0.9733 0.7114
vt 0.9684 0.7112
vt 0.8452 0.5094
vt 0.8406 0.5104
vt 0.9674 0.7096
vt 0.9723 0.7097
vt 0.8250 0.5113
vt 0.8295 0.5104
vt 0.9738 0.7225
vt 0.9689 0.7235
vt 0.8458 0.5000
vt 0.8412 0.5010
vt 0.9679 0.7218
vt 0.9728 0.7209
vt 0.8256 0.5010
vt 0.8302 0.5000
vt 0.9767 0.7346
vt 0.9721 0.7364
vt 0.5713 0.7231
vt 0.5670 0.7328
vt 0.5627 0.7306
vt 0.5670 0.7206
vt 0.9710 0.7344
vt 0.9756 0.7327
vt 0.9806 0.9051
vt 0.9761 0.9158
vt 0.9804 0.9180
vt 0.9849 0.9076
vt 0.9816 0.7459
vt 0.9772 0.7482
vt 0.5632 0.7443
vt 0.5586 0.7428
vt 0.9759 0.7456
vt 0.9803 0.7433
vt 0.9719 0.9287
vt 0.9765 0.9302
vt 0.9877 0.7546
vt 0.9836 0.7574
vt 0.5614 0.7566
vt 0.5567 0.7565
vt 0.9816 0.7539
vt 0.9857 0.7511
vt 0.9700 0.9431
vt 0.9747 0.9433
vt 0.8457 0.5638
vt 0.8440 0.5510
vt 0.8392 0.5506
vt 0.8410 0.5640
vt 0.5634 0.7695
vt 0.5590 0.7713
vt 0.8186 0.5276
vt 0.8170 0.5159
vt 0.8218 0.5163
vt 0.8233 0.5274
vt 0.9724 0.9585
vt 0.9768 0.9567
vt 0.8457 0.5335
vt 0.8409 0.5327
vt 0.5713 0.7825
vt 0.5679 0.7860
vt 0.8185 0.5000
vt 0.8233 0.5008
vt 0.9815 0.9735
vt 0.9849 0.9700
vt 0.7313 0.9398
vt 0.7287 0.9496
vt 0.7247 0.9507
vt 0.7281 0.9379
vt 0.5712 0.6486
vt 0.5712 0.6385
vt 0.5674 0.6387
vt 0.5674 0.6489
vt 0.7363 0.9379
vt 0.7330 0.9507
vt 0.7369 0.9496
vt 0.7395 0.9398
vt 0.5674 0.6368
vt 0.5674 0.6235
vt 0.5712 0.6232
vt 0.5712 0.6364
vt 0.7313 0.9566
vt 0.7281 0.9602
vt 0.5104 0.8887
vt 0.5089 0.8951
vt 0.5041 0.8940
vt 0.5056 0.8874
vt 0.7363 0.9599
vt 0.7395 0.9563
vt 0.9374 0.1894
vt 0.9355 0.1981
vt 0.9403 0.1991
vt 0.9422 0.1906
vt 0.4787 0.9929
vt 0.4735 0.9859
vt 0.4689 0.9877
vt 0.4749 0.9957
vt 0.5070 0.9063
vt 0.5020 0.9055
vt 0.4935 0.9914
vt 0.4878 0.9835
vt 0.4925 0.9817
vt 0.4973 0.9887
vt 0.9332 0.2113
vt 0.9382 0.2120
vt 0.4698 0.9749
vt 0.4650 0.9761
vt 0.5051 0.9212
vt 0.5002 0.9208
vt 0.4842 0.9721
vt 0.4890 0.9709
vt 0.9313 0.2274
vt 0.9363 0.2278
vt 0.4674 0.9612
vt 0.4625 0.9621
vt 0.5040 0.9382
vt 0.4991 0.9381
vt 0.4819 0.9583
vt 0.4868 0.9575
vt 0.9302 0.2451
vt 0.9352 0.2453
vt 0.4658 0.9461
vt 0.4609 0.9467
vt 0.5040 0.9558
vt 0.4990 0.9560
vt 0.4807 0.9431
vt 0.4856 0.9426
vt 0.9302 0.2634
vt 0.9352 0.2632
vt 0.4653 0.9306
vt 0.4603 0.9309
vt 0.5051 0.9725
vt 0.5001 0.9731
vt 0.4803 0.9277
vt 0.4853 0.9274
vt 0.9315 0.2808
vt 0.9364 0.2801
vt 0.4658 0.9161
vt 0.4609 0.9159
vt 0.5073 0.9866
vt 0.5025 0.9877
vt 0.4812 0.9132
vt 0.4861 0.9135
vt 0.9340 0.2959
vt 0.9388 0.2948
vt 0.4679 0.9040
vt 0.4633 0.9027
vt 0.5104 0.9966
vt 0.5057 0.9983
vt 0.4836 0.9007
vt 0.4882 0.9022
vt 0.9376 0.3075
vt 0.9422 0.3058
vt 0.4720 0.8958
vt 0.4686 0.8923
vt 0.2384 0.6841
vt 0.2370 0.6895
vt 0.2320 0.6898
vt 0.2336 0.6834
vt 0.4884 0.8916
vt 0.4917 0.8951
vt 0.2391 0.9380
vt 0.2371 0.9463
vt 0.2420 0.9461
vt 0.2439 0.9388
vt 0.4787 0.8923
vt 0.4779 0.8874
vt 0.2384 0.6964
vt 0.2337 0.6980
vt 0.4966 0.8874
vt 0.4973 0.8923
vt 0.2391 0.9576
vt 0.2439 0.9561
vn -0.2588 0.9659 0.0000
vn -0.7071 0.7071 0.0000
vn -0.9659 0.2588 0.0000
vn -0.9659 -0.2588 -0.0000
vn -0.7071 -0.7071 -0.0000
vn -0.2588 -0.9659 -0.0000
vn -0.7805 0.2091 0.5892
vn -0.5714 0.5714 0.5892
vn -0.2091 0.7805 0.5892
vn -0.2528 0.9459 0.2034
vn -0.9489 0.2549 0.1862
vn -0.6927 0.6944 0.1949
vn 0.0000 0.0000 -1.0000
vn 0.6699 0.6699 -0.3201
vn 0.6699 -0.6699 -0.3201
vn 0.2452 0.9151 -0.3201
vn 0.9151 -0.2452 -0.3201
vn 0.9151 0.2452 -0.3201
vn 0.2452 -0.9151 -0.3201
vn 0.9945 0.0012 -0.1052
vn 0.1142 0.4560 0.8826
vn -0.9908 0.0631 0.1196
vn -0.1146 -0.0806 -0.9901
vn -0.0552 -0.9742 -0.2189
vn 0.0552 0.9742 0.2189
vn 0.7205 0.6934 -0.0000
vn -0.4308 0.4783 0.7653
vn -0.7647 -0.6444 -0.0000
vn 0.2018 -0.2240 -0.9535
vn 0.6693 -0.7430 -0.0000
vn -0.6693 0.7430 0.0000
vn -0.0341 0.9994 -0.0000
vn -0.2462 0.9255 0.2876
vn -1.0000 0.0000 0.0000
vn -0.6992 0.7089 0.0923
vn -0.9590 0.2792 0.0496
vn -0.2514 0.7103 0.6574
vn -0.2673 0.9594 0.0896
vn -0.1982 0.9313 0.3057
vn -0.1323 0.8968 0.4222
vn -0.8506 0.4172 0.3201
vn -0.4219 0.8173 0.3924
vn -0.6961 0.7156 0.0587
vn -0.6138 0.7517 0.2411
vn -0.5263 0.7735 0.3531
vn -0.0221 0.7587 0.6511
vn -0.9534 0.2942 0.0673
vn -0.9037 0.3659 0.2225
vn -0.8647 0.3786 0.3301
vn -0.0765 0.8710 0.4852
vn -0.2696 0.9584 0.0935
vn -0.0850 0.9948 0.0562
vn -0.2278 0.9411 0.2497
vn -0.0035 0.9345 0.3559
vn -0.2855 0.9128 0.2920
vn -0.1619 0.9242 0.3459
vn -0.1796 0.9752 0.1294
vn -0.9993 0.0008 0.0365
vn -0.9841 0.0000 0.1775
vn -0.9990 0.0008 0.0454
vn -0.8458 0.0000 0.5335
vn -0.0104 0.0000 0.9999
vn -0.9487 0.0000 0.3162
vn -0.4360 0.0000 0.8999
vn -0.8189 0.4723 0.3259
vn -0.6877 0.7182 0.1059
vn -0.2636 0.9446 0.1957
vn -0.9467 -0.0000 0.3222
vn -0.5180 0.8525 0.0704
vn -0.9952 0.0946 -0.0233
vn -0.2313 0.9677 -0.1004
vn -0.9448 0.0002 0.3276
vn -0.6986 0.6145 0.3666
vn -0.8240 0.4754 0.3084
vn -0.8833 0.4172 0.2137
vn -0.9538 0.2948 0.0584
vn -0.0033 0.4683 0.8836
vn -0.8385 0.3205 0.4406
vn -0.3455 0.4041 0.8470
vn -0.9558 0.2860 0.0685
vn -0.2622 0.9650 0.0000
vn 0.0242 0.9996 0.0140
vn 0.0159 -0.9999 0.0017
vn 0.6209 0.0000 0.7839
vn 0.2565 -0.0369 -0.9658
vn -0.4772 -0.0000 -0.8788
vn 0.4580 0.8889 0.0000
vn -0.4740 0.0682 0.8779
vn 0.4467 0.8947 0.0000
vn -0.4738 -0.8806 -0.0000
vn -0.8889 0.4580 0.0000
vn -0.4580 -0.8889 0.0000
vn -0.5882 0.3031 0.7497
vn -0.5882 0.3031 -0.7497
vn -0.9920 -0.0180 -0.1253
vn -0.0014 0.9683 0.2498
vn -0.0014 -0.9683 0.2498
vn 0.9717 -0.1741 -0.1597
vn 0.0019 0.9433 0.3321
vn -0.0101 -0.8014 0.5981
vn -0.0204 0.2898 0.9569
vn 0.9846 -0.0130 -0.1745
vn -0.9794 -0.1678 -0.1122
vn -0.0204 -0.2898 0.9569
vn -0.0101 0.8014 0.5981
vn -0.0013 -0.9893 -0.1461
vn -0.9918 -0.0000 0.1281
vn -0.9913 0.0864 0.0997
vn 0.9467 0.2460 -0.2078
vn 0.9012 -0.3274 0.2839
vn 0.9700 0.0585 0.2358
vn 0.7895 -0.3101 -0.5297
vn 0.9039 0.0784 -0.4206
vn 0.9594 -0.0700 0.2733
vn 0.9710 0.1689 0.1692
vn 0.6934 -0.6520 -0.3068
vn 0.8395 -0.0752 -0.5382
vn 0.9687 0.2174 0.1199
vn 0.7605 -0.6150 0.2084
vn 0.7997 -0.1738 -0.5747
vn -0.4802 0.8763 0.0392
vn -0.9524 0.1195 0.2804
vn -0.9478 0.0024 0.3188
vn -0.4290 0.9033 0.0023
vn -0.4919 -0.8703 0.0253
vn -0.9725 0.1530 0.1758
vn -0.9768 0.1273 0.1725
vn -0.9108 0.0826 0.4044
vn -0.7897 0.0000 0.6135
vn -0.4434 -0.8962 0.0183
vn -0.9113 0.0000 -0.4118
vn -0.9991 0.0000 0.0419
vn -0.0745 0.7077 -0.7025
vn -0.1216 0.7044 -0.6993
vn -0.9592 0.0773 -0.2721
vn 0.0116 0.9999 0.0110
vn -0.0020 -0.9999 0.0120
vn 0.3891 0.0307 -0.9207
vn -0.2318 0.9727 -0.0051
vn -0.6508 -0.0513 0.7575
vn -0.1858 0.9826 -0.0000
vn 0.1589 -0.9873 0.0000
vn -0.9733 -0.2044 -0.1047
vn 0.2318 -0.9728 0.0051
vn -0.8144 -0.1634 0.5568
vn -0.4566 -0.1050 -0.8835
vn -0.0226 -0.2516 -0.9676
vn -0.0219 -0.2674 -0.9633
vn -0.0221 -0.2673 -0.9634
vn -0.0219 -0.2673 -0.9634
vn -0.0228 -0.2516 -0.9676
vn -0.0230 -0.2670 -0.9634
vn -0.0221 -0.2669 -0.9635
vn -0.0219 -0.2668 -0.9635
vn -0.0232 -0.2516 -0.9675
vn -0.0214 -0.2671 -0.9634
vn -0.0224 -0.2674 -0.9633
vn -0.0221 -0.2671 -0.9634
vn -0.0216 -0.2671 -0.9634
vn -0.0229 -0.2516 -0.9676
vn -0.0138 -0.8296 -0.5582
vn 0.9846 -0.0131 -0.1744
vn -0.0173 0.6286 -0.7775
vn 0.2588 0.9659 0.0000
vn 0.7071 0.7071 0.0000
vn 0.9659 0.2588 0.0000
vn 0.9659 -0.2588 -0.0000
vn 0.7071 -0.7071 -0.0000
vn 0.2588 -0.9659 -0.0000
vn 0.7805 0.2091 0.5892
vn 0.5714 0.5714 0.5892
vn 0.2091 0.7805 0.5892
vn 0.2528 0.9459 0.2034
vn 0.9489 0.2549 0.1862
vn 0.6927 0.6944 0.1949
vn -0.6699 0.6699 -0.3201
vn -0.6699 -0.6699 -0.3201
vn -0.2452 0.9151 -0.3201
vn -0.9151 -0.2452 -0.3201
vn -0.9151 0.2452 -0.3201
vn -0.2452 -0.9151 -0.3201
vn -0.9945 0.0012 -0.1052
vn -0.1142 0.4560 0.8826
vn 0.9908 0.0631 0.1196
vn 0.1146 -0.0806 -0.9901
vn 0.0552 -0.9742 -0.2189
vn -0.0552 0.9742 0.2189
vn -0.7205 0.6934 0.0000
vn 0.4308 0.4783 0.7653
vn 0.7647 -0.6444 0.0000
vn -0.2018 -0.2240 -0.9535
vn -0.6693 -0.7430 0.0000
vn 0.6693 0.7430 0.0000
vn 0.0341 0.9994 0.0000
vn 0.2462 0.9255 0.2876
vn 1.0000 -0.0000 0.0000
vn 0.6992 0.7089 0.0923
vn 0.9590 0.2792 0.0496
vn 0.2514 0.7103 0.6574
vn 0.2673 0.9594 0.0896
vn 0.1982 0.9313 0.3057
vn 0.1323 0.8968 0.4222
vn 0.8506 0.4172 0.3201
vn 0.4219 0.8173 0.3924
vn 0.6961 0.7156 0.0587
vn 0.6138 0.7517 0.2411
vn 0.5263 0.7735 0.3531
vn 0.0221 0.7587 0.6511
vn 0.9534 0.2942 0.0673
vn 0.9037 0.3659 0.2225
vn 0.8647 0.3786 0.3301
vn 0.0765 0.8710 0.4852
vn 0.2696 0.9584 0.0935
vn 0.0850 0.9948 0.0562
vn 0.2278 0.9411 0.2497
vn 0.0035 0.9345 0.3559
vn 0.2855 0.9128 0.2920
vn 0.1619 0.9242 0.3459
vn 0.1796 0.9752 0.1294
vn 0.9993 0.0008 0.0365
vn 0.9841 -0.0000 0.1775
vn 0.9990 0.0008 0.0454
vn 0.8458 -0.0000 0.5335
vn 0.0104 -0.0000 0.9999
vn 0.9487 -0.0000 0.3162
vn 0.4360 -0.0000 0.8999
vn 0.8189 0.4723 0.3259
vn 0.6877 0.7182 0.1059
vn 0.2636 0.9446 0.1957
vn 0.9467 0.0000 0.3222
vn 0.5180 0.8525 0.0704
vn 0.9952 0.0946 -0.0233
vn 0.2313 0.9677 -0.1004
vn 0.9448 0.0002 0.3276
vn 0.6986 0.6145 0.3666
vn 0.8240 0.4754 0.3084
vn 0.8833 0.4172 0.2137
vn 0.9538 0.2948 0.0584
vn 0.0033 0.4683 0.8836
vn 0.8385 0.3205 0.4406
vn 0.3455 0.4041 0.8470
vn 0.9558 0.2860 0.0685
vn 0.2622 0.9650 0.0000
vn -0.0242 0.9996 0.0140
vn -0.0159 -0.9999 0.0017
vn -0.6209 0.0000 0.7839
vn -0.2565 -0.0369 -0.9658
vn 0.4772 -0.0000 -0.8788
vn -0.4580 0.8889 0.0000
vn 0.4740 0.0682 0.8779
vn -0.4467 0.8947 0.0000
vn 0.4738 -0.8806 0.0000
vn 0.8889 0.4580 0.0000
vn 0.4580 -0.8889 0.0000
vn 0.5882 0.3031 0.7497
vn 0.5882 0.3031 -0.7497
vn 0.9920 -0.0180 -0.1253
vn 0.0014 0.9683 0.2498
vn 0.0014 -0.9683 0.2498
vn -0.9717 -0.1741 -0.1597
vn -0.0019 0.9433 0.3321
vn 0.0101 -0.8014 0.5981
vn 0.0204 0.2898 0.9569
vn -0.9846 -0.0130 -0.1745
vn 0.9794 -0.1678 -0.1122
vn 0.0204 -0.2898 0.9569
vn 0.0101 0.8014 0.5981
vn 0.0013 -0.9893 -0.1461
vn 0.9918 0.0000 0.1281
vn 0.9913 0.0864 0.0997
vn -0.9467 0.2460 -0.2078
vn -0.9012 -0.3274 0.2839
vn -0.9700 0.0585 0.2358
vn -0.7895 -0.3101 -0.5297
vn -0.9039 0.0784 -0.4206
vn -0.9594 -0.0700 0.2733
vn -0.9710 0.1689 0.1692
vn -0.6934 -0.6520 -0.3068
vn -0.8395 -0.0752 -0.5382
vn -0.9687 0.2174 0.1199
vn -0.7605 -0.6150 0.2084
vn -0.7997 -0.1738 -0.5747
vn 0.4802 0.8763 0.0392
vn 0.9524 0.1195 0.2804
vn 0.9478 0.0024 0.3188
vn 0.4290 0.9033 0.0023
vn 0.4919 -0.8703 0.0253
vn 0.9725 0.1530 0.1758
vn 0.9768 0.1273 0.1725
vn 0.9108 0.0826 0.4044
vn 0.7897 0.0000 0.6135
vn 0.4434 -0.8962 0.0183
vn 0.9113 -0.0000 -0.4118
vn 0.9991 -0.0000 0.0419
vn 0.0745 0.7077 -0.7025
vn 0.1216 0.7044 -0.6993
vn 0.9592 0.0773 -0.2721
vn -0.0116 0.9999 0.0110
vn 0.0020 -0.9999 0.0120
vn -0.3891 0.0307 -0.9207
vn 0.2318 0.9727 -0.0051
vn 0.6508 -0.0513 0.7575
vn 0.1858 0.9826 -0.0000
vn -0.1589 -0.9873 0.0000
vn 0.9733 -0.2044 -0.1047
vn -0.2318 -0.9728 0.0051
vn 0.8144 -0.1634 0.5568
vn 0.4566 -0.1050 -0.8835
vn 0.0226 -0.2516 -0.9676
vn 0.0219 -0.2674 -0.9633
vn 0.0221 -0.2673 -0.9634
vn 0.0219 -0.2673 -0.9634
vn 0.0228 -0.2516 -0.9676
vn 0.0230 -0.2670 -0.9634
vn 0.0221 -0.2669 -0.9635
vn 0.0219 -0.2668 -0.9635
vn 0.0232 -0.2516 -0.9675
vn 0.0214 -0.2671 -0.9634
vn 0.0224 -0.2674 -0.9633
vn 0.0221 -0.2671 -0.9634
vn 0.0216 -0.2671 -0.9634
vn 0.0229 -0.2516 -0.9676
vn 0.0138 -0.8296 -0.5582
vn -0.9846 -0.0131 -0.1744
vn 0.0173 0.6286 -0.7775
vn -0.0008 0.9984 0.0558
vn 0.0724 0.9931 -0.0920
vn 0.8918 -0.0716 0.4468
vn 0.9166 -0.0794 0.3919
vn -0.9138 -0.0732 -0.3994
vn -0.8987 -0.0763 -0.4319
vn 0.0405 -0.9984 -0.0387
vn -0.0327 -0.9933 0.1108
vn 0.2082 0.9150 -0.3454
vn 0.8429 -0.0304 0.5371
vn -0.8652 -0.0809 -0.4948
vn -0.1746 -0.9146 0.3646
vn 0.3199 0.7976 -0.5113
vn 0.8017 0.0298 0.5969
vn -0.8284 -0.1014 -0.5508
vn -0.2911 -0.7959 0.5308
vn 0.4038 0.6864 -0.6048
vn 0.7638 0.0961 0.6382
vn -0.7882 -0.1398 -0.5992
vn -0.3749 -0.6824 0.6275
vn 0.4668 0.6003 -0.6493
vn 0.7183 0.1765 0.6729
vn -0.7376 -0.2019 -0.6443
vn -0.4316 -0.5911 0.6814
vn 0.5129 0.5516 -0.6577
vn 0.6454 0.2937 0.7051
vn -0.6569 -0.3040 -0.6899
vn -0.4638 -0.5273 0.7119
vn 0.5256 0.5651 -0.6359
vn 0.4965 0.4818 0.7220
vn -0.4954 -0.4711 -0.7298
vn -0.4625 -0.4957 0.7351
vn 0.4379 0.6502 -0.6208
vn 0.1857 0.7168 0.6721
vn -0.1606 -0.6749 -0.7201
vn -0.4034 -0.4967 0.7685
vn 0.2337 0.6845 -0.6905
vn -0.2434 0.8119 0.5305
vn 0.2727 -0.7508 -0.6015
vn -0.2801 -0.5258 0.8031
vn 0.0649 0.6057 -0.7930
vn -0.5509 0.7285 0.4071
vn 0.5617 -0.6851 -0.4638
vn -0.1174 -0.5308 0.8393
vn 0.0097 0.5504 -0.8348
vn -0.6456 0.6679 0.3703
vn 0.6484 -0.6402 -0.4120
vn -0.0407 -0.5166 0.8553
vn -0.0102 0.9566 0.2912
vn 0.0054 0.9895 0.1441
vn 0.9957 -0.0676 0.0625
vn 0.9990 -0.0372 0.0261
vn -0.9974 -0.0502 -0.0515
vn -0.9946 -0.0693 -0.0772
vn 0.0268 -0.9568 -0.2895
vn 0.0228 -0.9902 -0.1375
vn 0.0811 0.9570 -0.2783
vn 0.9712 -0.1064 0.2130
vn -0.9829 -0.1323 -0.1278
vn -0.0169 -0.9534 0.3012
vn 0.2731 0.5775 -0.7693
vn 0.8971 0.0336 0.4406
vn -0.9583 -0.2270 -0.1732
vn -0.1592 -0.5663 0.8087
vn 0.4374 0.0218 -0.8990
vn 0.8275 0.3236 0.4588
vn -0.9027 -0.3393 -0.2646
vn -0.3506 -0.0040 0.9365
vn 0.5299 -0.2798 -0.8005
vn 0.7841 0.5109 0.3522
vn -0.8329 -0.4845 -0.2673
vn -0.4692 0.3127 0.8259
vn 0.5826 -0.3985 -0.7083
vn 0.7407 0.6294 0.2350
vn -0.7680 -0.6088 -0.1988
vn -0.5273 0.4434 0.7248
vn 0.6130 -0.4317 -0.6617
vn 0.6782 0.7285 0.0966
vn -0.6875 -0.7209 -0.0866
vn -0.5532 0.4958 0.6694
vn 0.6118 -0.4131 -0.6746
vn 0.5690 0.8178 -0.0856
vn -0.5579 -0.8269 0.0704
vn -0.5460 0.5108 0.6640
vn 0.5362 -0.3722 -0.7575
vn 0.3657 0.8773 -0.3106
vn -0.3321 -0.9070 0.2589
vn -0.4822 0.5125 0.7105
vn 0.3436 -0.3721 -0.8622
vn 0.0488 0.8654 -0.4986
vn -0.0119 -0.9127 0.4085
vn -0.3378 0.5220 0.7832
vn 0.2175 -0.3983 -0.8910
vn -0.1340 0.8247 -0.5494
vn 0.1596 -0.8744 0.4581
vn -0.2374 0.5195 0.8208
vn 0.0875 0.9855 0.1451
vn 0.2792 0.9244 0.2597
vn -0.3800 -0.0858 0.9210
vn -0.1104 -0.1569 0.9814
vn 0.0840 -0.0164 -0.9963
vn 0.3040 -0.1276 -0.9441
vn -0.1128 -0.9933 0.0228
vn -0.3659 -0.9301 -0.0300
vn 0.5378 0.7472 0.3905
vn -0.6997 0.1934 0.6877
vn 0.6222 -0.2974 -0.7241
vn -0.6519 -0.7120 -0.2608
vn 0.6221 0.6137 0.4861
vn -0.7626 0.4223 0.4899
vn 0.7306 -0.4541 -0.5099
vn -0.6898 -0.5765 -0.4379
vn 0.6369 0.5629 0.5267
vn -0.7542 0.5401 0.3735
vn 0.7440 -0.5489 -0.3810
vn -0.6783 -0.5332 -0.5054
vn 0.6398 0.5495 0.5372
vn -0.7367 0.6102 0.2914
vn 0.7356 -0.6112 -0.2922
vn -0.6713 -0.5235 -0.5247
vn 0.6407 0.5515 0.5341
vn -0.7160 0.6638 0.2161
vn 0.7182 -0.6620 -0.2144
vn -0.6712 -0.5233 -0.5250
vn 0.6391 0.5596 0.5276
vn -0.6872 0.7153 0.1266
vn 0.6888 -0.7140 -0.1258
vn -0.6760 -0.5209 -0.5212
vn 0.6279 0.5716 0.5283
vn -0.6333 0.7738 -0.0095
vn 0.6291 -0.7773 0.0033
vn -0.6818 -0.5033 -0.5309
vn 0.5857 0.5978 0.5473
vn -0.4894 0.8324 -0.2598
vn 0.4702 -0.8527 0.2274
vn -0.6622 -0.4510 -0.5983
vn 0.4799 0.6639 0.5734
vn -0.0864 0.7822 -0.6169
vn 0.0331 -0.8469 0.5307
vn -0.4965 -0.4183 -0.7606
vn 0.4117 0.6697 0.6180
vn 0.2158 0.6464 -0.7318
vn -0.2663 -0.7177 0.6433
vn -0.3403 -0.4610 -0.8195
s off
f 368/1/1 380/2/1 161/3/1 153/4/1
f 153/4/2 161/3/2 162/5/2 154/6/2
f 154/7/3 162/8/3 163/9/3 155/10/3
f 155/10/4 163/9/4 164/11/4 156/12/4
f 156/12/5 164/11/5 165/13/5 157/14/5
f 157/15/6 165/16/6 385/17/6 374/18/6
f 147/19/7 154/7/7 155/10/7 149/20/7
f 145/21/8 153/22/8 154/23/8 147/24/8
f 357/25/9 368/1/9 153/4/9 145/26/9
f 357/25/10 145/26/10 158/27/10 375/28/10
f 147/19/11 149/20/11 160/29/11 159/30/11
f 145/26/12 147/31/12 159/32/12 158/27/12
f 358/33/13 146/34/13 161/35/13 380/36/13
f 146/34/13 148/37/13 162/38/13 161/35/13
f 148/37/13 150/39/13 163/40/13 162/38/13
f 150/39/13 151/41/13 164/42/13 163/40/13
f 151/41/13 152/43/13 165/44/13 164/42/13
f 152/43/13 367/45/13 385/46/13 165/44/13
f 166/47/13 387/48/13 392/49/13 170/50/13 169/51/13 168/52/13 167/53/13
f 152/54/14 151/55/14 169/56/14 170/57/14
f 148/58/15 146/59/15 166/60/15 167/61/15
f 367/62/16 152/63/16 170/64/16 392/65/16
f 150/66/17 148/67/17 167/68/17 168/69/17
f 151/55/18 150/66/18 168/69/18 169/56/18
f 146/59/19 358/70/19 387/71/19 166/60/19
f 172/72/20 174/73/20 173/74/20 171/75/20
f 174/76/21 178/77/21 177/78/21 173/79/21
f 178/80/22 176/81/22 175/82/22 177/83/22
f 176/84/23 172/85/23 171/86/23 175/87/23
f 171/88/24 173/89/24 177/90/24 175/91/24
f 176/92/25 178/93/25 174/94/25 172/95/25
f 180/96/26 182/97/26 181/98/26 179/99/26
f 182/100/27 186/101/27 185/102/27 181/103/27
f 186/104/28 184/105/28 183/106/28 185/107/28
f 184/108/29 180/109/29 179/110/29 183/111/29
f 179/112/30 181/113/30 185/114/30 183/115/30
f 184/116/31 186/117/31 182/118/31 180/119/31
f 190/120/2 191/121/2 188/122/2 187/123/2
f 232/124/3 192/125/3 189/126/3 231/127/3
f 189/128/32 192/129/32 205/130/32 193/131/32
f 208/132/33 209/133/33 215/134/33 214/135/33
f 205/136/34 218/137/34 217/138/34 193/139/34
f 187/140/35 188/141/35 200/142/35 195/143/35
f 231/144/36 189/145/36 206/146/36 234/147/36
f 233/148/37 204/149/37 196/150/37 238/151/37
f 420/152/38 195/143/38 197/153/38 421/154/38
f 421/154/39 197/153/39 198/155/39 422/156/39
f 422/156/40 198/155/40 199/157/40 423/158/40
f 237/159/41 238/160/41 196/161/41 203/162/41
f 196/150/42 204/149/42 199/157/42 203/163/42
f 195/143/43 200/142/43 201/164/43 197/153/43
f 197/153/44 201/164/44 202/165/44 198/155/44
f 198/155/45 202/165/45 203/163/45 199/157/45
f 472/166/46 424/167/46 204/149/46 233/148/46
f 234/147/47 206/146/47 210/168/47 235/169/47
f 235/169/48 210/168/48 209/170/48 236/171/48
f 236/171/49 209/170/49 208/172/49 237/159/49
f 199/157/50 204/149/50 424/167/50 423/158/50
f 409/173/51 187/140/51 195/143/51 420/152/51
f 206/174/52 189/128/52 193/131/52 212/175/52
f 209/133/53 210/176/53 216/177/53 215/134/53
f 419/178/54 194/179/54 211/180/54 442/181/54
f 207/182/55 208/132/55 214/135/55 213/183/55
f 194/179/56 207/182/56 213/183/56 211/180/56
f 210/176/57 206/174/57 212/175/57 216/177/57
f 212/184/58 193/185/58 217/186/58 220/187/58
f 188/188/3 191/189/3 232/190/3 231/144/3
f 215/191/59 216/192/59 224/193/59 223/194/59
f 216/192/60 212/184/60 220/187/60 224/193/60
f 213/195/61 214/196/61 222/197/61 221/198/61
f 442/199/62 211/200/62 219/201/62 451/202/62
f 214/196/63 215/191/63 223/194/63 222/197/63
f 211/200/64 213/203/64 221/204/64 219/201/64
f 232/124/65 191/205/65 226/206/65 240/207/65
f 191/208/66 190/209/66 225/210/66 226/211/66
f 190/209/67 413/212/67 457/213/67 225/210/67
f 239/214/68 240/207/68 226/206/68 227/215/68
f 226/211/69 225/210/69 228/216/69 229/217/69
f 227/215/70 226/206/70 229/218/70 230/219/70
f 225/210/71 457/213/71 459/220/71 228/216/71
f 218/137/72 205/136/72 240/207/72 239/214/72
f 192/125/73 232/124/73 240/207/73 205/136/73
f 202/221/74 236/171/74 237/159/74 203/162/74
f 201/222/75 235/169/75 236/171/75 202/221/75
f 200/223/76 234/147/76 235/169/76 201/222/76
f 419/224/77 472/225/77 233/226/77 194/227/77
f 208/172/78 207/228/78 238/160/78 237/159/78
f 194/227/79 233/226/79 238/229/79 207/230/79
f 188/188/80 231/144/80 234/147/80 200/223/80
f 413/212/81 190/209/81 187/231/81 409/232/81
f 242/233/82 241/234/82 246/235/82 245/236/82
f 243/237/83 244/238/83 247/239/83 248/240/83
f 244/241/84 242/242/84 245/243/84 247/244/84
f 246/245/85 248/246/85 252/247/85 250/248/85
f 241/249/86 243/250/86 248/251/86 246/252/86
f 249/253/87 250/254/87 254/255/87 253/256/87
f 247/257/88 245/258/88 249/259/88 251/260/88
f 245/261/89 246/262/89 250/254/89 249/253/89
f 248/263/90 247/264/90 251/265/90 252/266/90
f 255/267/91 253/268/91 254/269/91 256/270/91
f 252/266/92 251/265/92 255/271/92 256/272/92
f 251/273/93 249/274/93 253/275/93 255/276/93
f 250/277/94 252/278/94 256/279/94 254/280/94
f 262/281/95 263/282/95 350/283/95 347/284/95
f 260/285/96 272/286/96 271/287/96 259/288/96
f 267/289/97 279/290/97 278/291/97 266/292/97
f 274/293/98 273/294/98 355/295/98 348/296/98
f 338/297/99 343/298/99 272/286/99 260/285/99
f 268/299/100 280/300/100 279/290/100 267/289/100
f 258/301/101 270/302/101 269/303/101 257/304/101
f 277/305/102 276/306/102 351/307/102 356/308/102
f 261/309/103 262/281/103 347/284/103 353/310/103
f 257/304/104 269/303/104 280/311/104 268/312/104
f 259/288/105 271/287/105 270/313/105 258/314/105
f 266/292/106 278/291/106 346/315/106 341/316/106
f 279/317/107 315/318/107 314/319/107 278/320/107
f 270/321/107 306/322/107 294/323/107 269/324/107
f 272/325/107 308/326/107 307/327/107 271/328/107
f 343/329/108 309/330/108 308/326/108 272/325/108
f 271/328/107 307/327/107 306/322/107 270/321/107
f 260/331/109 284/332/109 285/333/109 338/334/109
f 267/335/110 291/336/110 292/337/110 268/338/110
f 257/339/111 281/340/111 282/341/111 258/342/111
f 340/343/112 288/344/112 289/345/112 341/346/112
f 338/334/113 285/333/113 286/347/113 337/348/113
f 268/338/114 292/337/114 281/340/114 257/339/114
f 258/342/115 282/341/115 283/349/115 259/350/115
f 341/346/116 289/345/116 290/351/116 266/352/116
f 337/348/117 286/347/117 287/353/117 339/354/117
f 259/350/118 283/349/118 284/332/118 260/331/118
f 266/352/119 290/351/119 291/336/119 267/335/119
f 339/354/120 287/353/120 288/344/120 340/343/120
f 299/355/121 305/356/121 303/357/121 297/358/121
f 346/359/122 313/360/122 312/361/122 345/362/122
f 344/363/123 311/364/123 310/365/123 342/366/123
f 297/358/124 303/357/124 304/367/124 298/368/124
f 293/369/125 300/370/125 302/371/125 296/372/125
f 278/320/126 314/319/126 313/360/126 346/359/126
f 269/324/107 294/323/107 316/373/107 280/374/107
f 342/366/127 310/365/127 309/330/127 343/329/127
f 345/362/128 312/361/128 311/364/128 344/363/128
f 298/375/129 304/376/129 301/377/129 295/378/129
f 295/379/130 301/380/130 300/370/130 293/369/130
f 296/381/131 302/382/131 305/383/131 299/384/131
f 300/385/132 301/377/132 304/376/132 303/386/132 305/383/132 302/382/132
f 280/374/107 316/373/107 315/318/107 279/317/107
f 316/373/107 299/384/107 315/318/107
f 307/327/107 296/381/107 306/322/107
f 313/360/107 298/375/107 312/361/107
f 310/365/107 295/378/107 309/330/107
f 311/364/107 312/361/107 298/375/107 295/378/107 310/365/107
f 298/375/107 313/360/107 314/319/107 297/387/107
f 297/387/107 314/319/107 315/318/107 299/384/107
f 294/323/107 306/322/107 296/381/107 299/384/107 316/373/107
f 308/326/107 309/330/107 295/378/107 293/388/107 296/381/107 307/327/107
f 228/216/133 459/220/133 552/389/133 317/390/133
f 229/217/134 228/216/134 317/390/134 318/391/134
f 317/392/13 552/393/13 555/394/13 319/395/13
f 318/396/13 317/392/13 319/395/13 320/397/13
f 229/218/135 318/398/135 320/399/135 230/219/135
f 322/400/136 321/401/136 326/402/136 325/403/136
f 323/404/137 324/405/137 327/406/137 328/407/137
f 324/408/84 322/409/84 325/410/84 327/411/84
f 326/412/138 328/413/138 332/414/138 330/415/138
f 321/416/86 323/417/86 328/418/86 326/419/86
f 329/420/139 330/421/139 334/422/139 333/423/139
f 327/424/140 325/425/140 329/426/140 331/427/140
f 325/428/141 326/429/141 330/421/141 329/420/141
f 328/430/142 327/431/142 331/432/142 332/433/142
f 335/434/143 333/435/143 334/436/143 336/437/143
f 332/433/144 331/432/144 335/438/144 336/439/144
f 331/440/145 329/441/145 333/435/145 335/434/145
f 330/415/146 332/414/146 336/442/146 334/443/146
f 262/444/147 261/445/147 338/446/147 337/447/147
f 263/448/148 262/444/148 337/447/148 339/449/148
f 264/450/149 263/448/149 339/449/149 340/451/149
f 265/452/150 264/450/150 340/451/150 341/453/150
f 273/454/151 274/455/151 342/456/151 343/457/151
f 274/455/152 275/458/152 344/459/152 342/456/152
f 275/458/153 276/460/153 345/461/153 344/459/153
f 276/460/154 277/462/154 346/463/154 345/461/154
f 261/445/155 273/454/155 343/457/155 338/446/155
f 277/462/156 265/452/156 341/453/156 346/463/156
f 350/464/157 349/465/157 348/466/157 347/467/157
f 352/468/158 351/469/158 349/465/158 350/464/158
f 354/470/159 356/471/159 351/469/159 352/468/159
f 347/467/160 348/466/160 355/472/160 353/473/160
f 273/474/161 261/475/161 353/476/161 355/477/161
f 275/478/162 274/293/162 348/296/162 349/479/162
f 263/282/95 264/480/95 352/481/95 350/283/95
f 265/452/163 277/462/163 356/471/163 354/470/163
f 276/306/162 275/478/162 349/479/162 351/307/162
f 264/480/95 265/482/95 354/483/95 352/481/95
f 368/1/164 369/484/164 379/485/164 380/2/164
f 369/486/165 370/487/165 381/488/165 379/489/165
f 370/487/166 371/490/166 382/491/166 381/488/166
f 371/490/167 372/492/167 383/493/167 382/491/167
f 372/494/168 373/495/168 384/496/168 383/497/168
f 373/495/169 374/18/169 385/17/169 384/496/169
f 361/498/170 363/499/170 371/490/170 370/487/170
f 359/500/171 361/501/171 370/502/171 369/503/171
f 357/25/172 359/504/172 369/484/172 368/1/172
f 357/25/173 375/28/173 376/505/173 359/504/173
f 361/498/174 377/506/174 378/507/174 363/499/174
f 359/504/175 376/505/175 377/508/175 361/509/175
f 358/33/13 380/36/13 379/510/13 360/511/13
f 360/511/13 379/510/13 381/512/13 362/513/13
f 362/513/13 381/512/13 382/514/13 364/515/13
f 364/515/13 382/514/13 383/516/13 365/517/13
f 365/517/13 383/516/13 384/518/13 366/519/13
f 366/519/13 384/518/13 385/46/13 367/45/13
f 386/520/13 388/521/13 389/522/13 390/523/13 391/524/13 392/49/13 387/48/13
f 366/525/176 391/526/176 390/527/176 365/528/176
f 362/529/177 388/530/177 386/531/177 360/532/177
f 367/62/178 392/65/178 391/526/178 366/525/178
f 364/533/179 389/534/179 388/530/179 362/529/179
f 365/535/180 390/536/180 389/534/180 364/533/180
f 360/537/181 386/538/181 387/71/181 358/70/181
f 394/539/182 393/540/182 395/541/182 396/542/182
f 396/543/183 395/544/183 399/545/183 400/546/183
f 400/547/184 399/548/184 397/549/184 398/550/184
f 398/551/185 397/552/185 393/553/185 394/554/185
f 393/555/186 397/556/186 399/557/186 395/558/186
f 398/559/187 394/560/187 396/561/187 400/562/187
f 402/563/188 401/564/188 403/565/188 404/566/188
f 404/567/189 403/568/189 407/569/189 408/570/189
f 408/571/190 407/572/190 405/573/190 406/574/190
f 406/575/191 405/576/191 401/577/191 402/578/191
f 401/579/192 405/580/192 407/581/192 403/582/192
f 406/583/193 402/584/193 404/585/193 408/586/193
f 414/587/165 410/588/165 411/589/165 415/590/165
f 466/591/166 465/592/166 412/593/166 416/594/166
f 412/595/194 417/596/194 435/597/194 416/598/194
f 438/599/195 445/600/195 446/601/195 439/602/195
f 435/603/196 417/604/196 448/605/196 449/606/196
f 410/607/197 425/608/197 430/609/197 411/610/197
f 465/611/198 468/612/198 436/613/198 412/614/198
f 467/615/199 473/616/199 426/617/199 434/618/199
f 420/152/200 421/154/200 427/619/200 425/608/200
f 421/154/201 422/156/201 428/620/201 427/619/201
f 422/156/202 423/158/202 429/621/202 428/620/202
f 471/622/203 433/623/203 426/624/203 473/625/203
f 426/617/204 433/626/204 429/621/204 434/618/204
f 425/608/205 427/619/205 431/627/205 430/609/205
f 427/619/206 428/620/206 432/628/206 431/627/206
f 428/620/207 429/621/207 433/626/207 432/628/207
f 472/166/208 467/615/208 434/618/208 424/167/208
f 468/612/209 469/629/209 440/630/209 436/613/209
f 469/629/210 470/631/210 439/632/210 440/630/210
f 470/631/211 471/622/211 438/633/211 439/632/211
f 429/621/212 423/158/212 424/167/212 434/618/212
f 409/173/213 420/152/213 425/608/213 410/607/213
f 436/634/214 443/635/214 417/596/214 412/595/214
f 439/602/215 446/601/215 447/636/215 440/637/215
f 419/178/216 442/181/216 441/638/216 418/639/216
f 437/640/217 444/641/217 445/600/217 438/599/217
f 418/639/218 441/638/218 444/641/218 437/640/218
f 440/637/219 447/636/219 443/635/219 436/634/219
f 443/642/220 452/643/220 448/644/220 417/645/220
f 411/646/166 465/611/166 466/647/166 415/648/166
f 446/649/221 455/650/221 456/651/221 447/652/221
f 447/652/222 456/651/222 452/643/222 443/642/222
f 444/653/223 453/654/223 454/655/223 445/656/223
f 442/199/224 451/202/224 450/657/224 441/658/224
f 445/656/225 454/655/225 455/650/225 446/649/225
f 441/658/226 450/657/226 453/659/226 444/660/226
f 466/591/227 475/661/227 460/662/227 415/663/227
f 415/664/228 460/665/228 458/666/228 414/667/228
f 414/667/229 458/666/229 457/213/229 413/212/229
f 474/668/230 461/669/230 460/662/230 475/661/230
f 460/665/231 463/670/231 462/671/231 458/666/231
f 461/669/232 464/672/232 463/673/232 460/662/232
f 458/666/233 462/671/233 459/220/233 457/213/233
f 449/606/234 474/668/234 475/661/234 435/603/234
f 416/594/235 435/603/235 475/661/235 466/591/235
f 432/674/236 433/623/236 471/622/236 470/631/236
f 431/675/237 432/674/237 470/631/237 469/629/237
f 430/676/238 431/675/238 469/629/238 468/612/238
f 419/224/239 418/677/239 467/678/239 472/225/239
f 438/633/240 471/622/240 473/625/240 437/679/240
f 418/677/241 437/680/241 473/681/241 467/678/241
f 411/646/242 430/676/242 468/612/242 465/611/242
f 413/212/243 409/232/243 410/682/243 414/667/243
f 477/683/244 480/684/244 481/685/244 476/686/244
f 478/687/245 483/688/245 482/689/245 479/690/245
f 479/691/246 482/692/246 480/693/246 477/694/246
f 481/695/247 485/696/247 487/697/247 483/698/247
f 476/699/248 481/700/248 483/701/248 478/702/248
f 484/703/249 488/704/249 489/705/249 485/706/249
f 482/707/250 486/708/250 484/709/250 480/710/250
f 480/711/251 484/703/251 485/706/251 481/712/251
f 483/713/252 487/714/252 486/715/252 482/716/252
f 490/717/253 491/718/253 489/719/253 488/720/253
f 487/714/254 491/721/254 490/722/254 486/715/254
f 486/723/255 490/724/255 488/725/255 484/726/255
f 485/727/256 489/728/256 491/729/256 487/730/256
f 497/731/257 584/732/257 587/733/257 498/734/257
f 495/735/258 494/736/258 506/737/258 507/738/258
f 502/739/259 501/740/259 513/741/259 514/742/259
f 509/743/260 585/744/260 592/745/260 508/746/260
f 575/747/261 495/735/261 507/738/261 580/748/261
f 503/749/262 502/739/262 514/742/262 515/750/262
f 493/751/263 492/752/263 504/753/263 505/754/263
f 512/755/264 593/756/264 588/757/264 511/758/264
f 496/759/265 590/760/265 584/732/265 497/731/265
f 492/752/266 503/761/266 515/762/266 504/753/266
f 494/736/267 493/763/267 505/764/267 506/737/267
f 501/740/268 578/765/268 583/766/268 513/741/268
f 514/767/269 513/768/269 549/769/269 550/770/269
f 505/771/269 504/772/269 529/773/269 541/774/269
f 507/775/269 506/776/269 542/777/269 543/778/269
f 580/779/270 507/775/270 543/778/270 544/780/270
f 506/776/269 505/771/269 541/774/269 542/777/269
f 495/781/271 575/782/271 520/783/271 519/784/271
f 502/785/272 503/786/272 527/787/272 526/788/272
f 492/789/273 493/790/273 517/791/273 516/792/273
f 577/793/274 578/794/274 524/795/274 523/796/274
f 575/782/275 574/797/275 521/798/275 520/783/275
f 503/786/276 492/789/276 516/792/276 527/787/276
f 493/790/277 494/799/277 518/800/277 517/791/277
f 578/794/278 501/801/278 525/802/278 524/795/278
f 574/797/279 576/803/279 522/804/279 521/798/279
f 494/799/280 495/781/280 519/784/280 518/800/280
f 501/801/281 502/785/281 526/788/281 525/802/281
f 576/803/282 577/793/282 523/796/282 522/804/282
f 534/805/283 532/806/283 538/807/283 540/808/283
f 583/809/284 582/810/284 547/811/284 548/812/284
f 581/813/285 579/814/285 545/815/285 546/816/285
f 532/806/286 533/817/286 539/818/286 538/807/286
f 528/819/287 531/820/287 537/821/287 535/822/287
f 513/768/288 583/809/288 548/812/288 549/769/288
f 504/772/269 515/823/269 551/824/269 529/773/269
f 579/814/289 580/779/289 544/780/289 545/815/289
f 582/810/290 581/813/290 546/816/290 547/811/290
f 533/825/291 530/826/291 536/827/291 539/828/291
f 530/829/292 528/819/292 535/822/292 536/830/292
f 531/831/293 534/832/293 540/833/293 537/834/293
f 535/835/294 537/834/294 540/833/294 538/836/294 539/828/294 536/827/294
f 515/823/269 514/767/269 550/770/269 551/824/269
f 551/824/269 550/770/269 534/832/269
f 542/777/269 541/774/269 531/831/269
f 548/812/269 547/811/269 533/825/269
f 545/815/269 544/780/269 530/826/269
f 546/816/269 545/815/269 530/826/269 533/825/269 547/811/269
f 533/825/269 532/837/269 549/769/269 548/812/269
f 532/837/269 534/832/269 550/770/269 549/769/269
f 529/773/269 551/824/269 534/832/269 531/831/269 541/774/269
f 543/778/269 542/777/269 531/831/269 528/838/269 530/826/269 544/780/269
f 462/671/295 553/839/295 552/389/295 459/220/295
f 463/670/296 554/840/296 553/839/296 462/671/296
f 553/841/13 556/842/13 555/394/13 552/393/13
f 554/843/13 557/844/13 556/842/13 553/841/13
f 463/673/297 464/672/297 557/845/297 554/846/297
f 559/847/298 562/848/298 563/849/298 558/850/298
f 560/851/299 565/852/299 564/853/299 561/854/299
f 561/855/246 564/856/246 562/857/246 559/858/246
f 563/859/300 567/860/300 569/861/300 565/862/300
f 558/863/248 563/864/248 565/865/248 560/866/248
f 566/867/301 570/868/301 571/869/301 567/870/301
f 564/871/302 568/872/302 566/873/302 562/874/302
f 562/875/303 566/867/303 567/870/303 563/876/303
f 565/877/304 569/878/304 568/879/304 564/880/304
f 572/881/305 573/882/305 571/883/305 570/884/305
f 569/878/306 573/885/306 572/886/306 568/879/306
f 568/887/307 572/881/307 570/884/307 566/888/307
f 567/860/308 571/889/308 573/890/308 569/861/308
f 497/891/309 574/892/309 575/893/309 496/894/309
f 498/895/310 576/896/310 574/892/310 497/891/310
f 499/897/311 577/898/311 576/896/311 498/895/311
f 500/899/312 578/900/312 577/898/312 499/897/312
f 508/901/313 580/902/313 579/903/313 509/904/313
f 509/904/314 579/903/314 581/905/314 510/906/314
f 510/906/315 581/905/315 582/907/315 511/908/315
f 511/908/316 582/907/316 583/909/316 512/910/316
f 496/894/317 575/893/317 580/902/317 508/901/317
f 512/910/318 583/909/318 578/900/318 500/899/318
f 587/911/319 584/912/319 585/913/319 586/914/319
f 589/915/320 587/911/320 586/914/320 588/916/320
f 591/917/321 589/915/321 588/916/321 593/918/321
f 584/912/322 590/919/322 592/920/322 585/913/322
f 508/921/323 592/922/323 590/923/323 496/924/323
f 510/925/324 586/926/324 585/744/324 509/743/324
f 498/734/257 587/733/257 589/927/257 499/928/257
f 500/899/325 591/917/325 593/918/325 512/910/325
f 511/758/324 588/757/324 586/926/324 510/925/324
f 499/928/257 589/927/257 591/929/257 500/930/257
s 1
f 1/931/326 5/932/327 8/933/328 4/934/329
f 2/935/330 6/936/331 5/932/327 1/931/326
f 3/937/332 7/938/333 6/936/331 2/935/330
f 4/934/329 8/933/328 7/938/333 3/937/332
f 5/939/327 9/940/334 12/941/335 8/942/328
f 6/936/331 10/943/336 9/944/334 5/932/327
f 7/945/333 11/946/337 10/947/336 6/948/331
f 8/933/328 12/949/335 11/950/337 7/938/333
f 9/940/334 13/951/338 16/952/339 12/941/335
f 10/953/336 14/954/340 13/955/338 9/956/334
f 11/946/337 15/957/341 14/958/340 10/947/336
f 12/959/335 16/960/339 15/961/341 11/962/337
f 13/951/338 17/963/342 20/964/343 16/952/339
f 14/954/340 18/965/344 17/966/342 13/955/338
f 15/957/341 19/967/345 18/968/344 14/958/340
f 16/960/339 20/969/343 19/970/345 15/961/341
f 17/963/342 21/971/346 24/972/347 20/964/343
f 18/965/344 22/973/348 21/974/346 17/966/342
f 19/967/345 23/975/349 22/976/348 18/968/344
f 20/969/343 24/977/347 23/978/349 19/970/345
f 21/971/346 25/979/350 28/980/351 24/972/347
f 22/973/348 26/981/352 25/982/350 21/974/346
f 23/975/349 27/983/353 26/984/352 22/976/348
f 24/977/347 28/985/351 27/986/353 23/978/349
f 25/979/350 29/987/354 32/988/355 28/980/351
f 26/981/352 30/989/356 29/990/354 25/982/350
f 27/983/353 31/991/357 30/992/356 26/984/352
f 28/985/351 32/993/355 31/994/357 27/986/353
f 29/995/354 33/996/358 36/997/359 32/998/355
f 30/989/356 34/999/360 33/1000/358 29/990/354
f 31/1001/357 35/1002/361 34/1003/360 30/1004/356
f 32/993/355 36/1005/359 35/1006/361 31/994/357
f 33/996/358 37/1007/362 40/1008/363 36/997/359
f 34/999/360 38/1009/364 37/1010/362 33/1000/358
f 35/1002/361 39/1011/365 38/1012/364 34/1003/360
f 36/1005/359 40/1013/363 39/1014/365 35/1006/361
f 37/1007/362 41/1015/366 44/1016/367 40/1008/363
f 38/1009/364 42/1017/368 41/1018/366 37/1010/362
f 39/1011/365 43/1019/369 42/1020/368 38/1012/364
f 40/1013/363 44/1021/367 43/1022/369 39/1014/365
f 41/1015/366 45/1023/370 48/1024/371 44/1016/367
f 42/1017/368 46/1025/372 45/1026/370 41/1018/366
f 43/1019/369 47/1027/373 46/1028/372 42/1020/368
f 44/1021/367 48/1029/371 47/1030/373 43/1022/369
f 49/1031/374 53/1032/375 56/1033/376 52/1034/377
f 50/1035/378 54/1036/379 53/1032/375 49/1031/374
f 51/1037/380 55/1038/381 54/1036/379 50/1035/378
f 52/1034/377 56/1033/376 55/1038/381 51/1037/380
f 53/1039/375 57/1040/382 60/1041/383 56/1042/376
f 54/1043/379 58/1044/384 57/1040/382 53/1039/375
f 55/1045/381 59/1046/385 58/1044/384 54/1043/379
f 56/1042/376 60/1041/383 59/1046/385 55/1045/381
f 57/1047/382 61/1048/386 64/1049/387 60/1050/383
f 58/1051/384 62/1052/388 61/1048/386 57/1047/382
f 59/1053/385 63/1054/389 62/1052/388 58/1051/384
f 60/1050/383 64/1049/387 63/1054/389 59/1053/385
f 61/1048/386 65/1055/390 68/1056/391 64/1049/387
f 62/1057/388 66/1058/392 65/1059/390 61/1060/386
f 63/1054/389 67/1061/393 66/1062/392 62/1052/388
f 64/1063/387 68/1064/391 67/1065/393 63/1066/389
f 65/1055/390 69/1067/394 72/1068/395 68/1056/391
f 66/1058/392 70/1069/396 69/1070/394 65/1059/390
f 67/1061/393 71/1071/397 70/1072/396 66/1062/392
f 68/1064/391 72/1073/395 71/1074/397 67/1065/393
f 69/1067/394 73/1075/398 76/1076/399 72/1068/395
f 70/1069/396 74/1077/400 73/1078/398 69/1070/394
f 71/1071/397 75/1079/401 74/1080/400 70/1072/396
f 72/1073/395 76/1081/399 75/1082/401 71/1074/397
f 73/1075/398 77/1083/402 80/1084/403 76/1076/399
f 74/1085/400 78/1086/404 77/1087/402 73/1088/398
f 75/1079/401 79/1089/405 78/1090/404 74/1080/400
f 76/1091/399 80/1092/403 79/1093/405 75/1094/401
f 77/1083/402 81/1095/406 84/1096/407 80/1084/403
f 78/1086/404 82/1097/408 81/1098/406 77/1087/402
f 79/1089/405 83/1099/409 82/1100/408 78/1090/404
f 80/1092/403 84/1101/407 83/1102/409 79/1093/405
f 81/1095/406 85/1103/410 88/1104/411 84/1096/407
f 82/1097/408 86/1105/412 85/1106/410 81/1098/406
f 83/1099/409 87/1107/413 86/1108/412 82/1100/408
f 84/1101/407 88/1109/411 87/1110/413 83/1102/409
f 85/1111/410 89/1112/414 92/1113/415 88/1114/411
f 86/1105/412 90/1115/416 89/1116/414 85/1106/410
f 87/1117/413 91/1118/417 90/1119/416 86/1120/412
f 88/1109/411 92/1121/415 91/1122/417 87/1110/413
f 89/1112/414 93/1123/418 96/1124/419 92/1113/415
f 90/1115/416 94/1125/420 93/1126/418 89/1116/414
f 91/1118/417 95/1127/421 94/1128/420 90/1119/416
f 92/1121/415 96/1129/419 95/1130/421 91/1122/417
f 97/1131/422 101/1132/423 104/1133/424 100/1134/425
f 98/1135/426 102/1136/427 101/1137/423 97/1138/422
f 99/1139/428 103/1140/429 102/1141/427 98/1142/426
f 100/1143/425 104/1144/424 103/1145/429 99/1146/428
f 101/1132/423 105/1147/430 108/1148/431 104/1133/424
f 102/1149/427 106/1150/432 105/1151/430 101/1152/423
f 103/1140/429 107/1153/433 106/1154/432 102/1141/427
f 104/1155/424 108/1156/431 107/1157/433 103/1158/429
f 105/1159/430 109/1160/434 112/1161/435 108/1162/431
f 106/1150/432 110/1163/436 109/1164/434 105/1151/430
f 107/1165/433 111/1166/437 110/1167/436 106/1168/432
f 108/1156/431 112/1169/435 111/1170/437 107/1157/433
f 109/1160/434 113/1171/438 116/1172/439 112/1161/435
f 110/1163/436 114/1173/440 113/1174/438 109/1164/434
f 111/1166/437 115/1175/441 114/1176/440 110/1167/436
f 112/1169/435 116/1177/439 115/1178/441 111/1170/437
f 113/1171/438 117/1179/442 120/1180/443 116/1172/439
f 114/1173/440 118/1181/444 117/1182/442 113/1174/438
f 115/1175/441 119/1183/445 118/1184/444 114/1176/440
f 116/1177/439 120/1185/443 119/1186/445 115/1178/441
f 117/1179/442 121/1187/446 124/1188/447 120/1180/443
f 118/1181/444 122/1189/448 121/1190/446 117/1182/442
f 119/1183/445 123/1191/449 122/1192/448 118/1184/444
f 120/1185/443 124/1193/447 123/1194/449 119/1186/445
f 121/1187/446 125/1195/450 128/1196/451 124/1188/447
f 122/1189/448 126/1197/452 125/1198/450 121/1190/446
f 123/1191/449 127/1199/453 126/1200/452 122/1192/448
f 124/1193/447 128/1201/451 127/1202/453 123/1194/449
f 125/1195/450 129/1203/454 132/1204/455 128/1196/451
f 126/1197/452 130/1205/456 129/1206/454 125/1198/450
f 127/1199/453 131/1207/457 130/1208/456 126/1200/452
f 128/1201/451 132/1209/455 131/1210/457 127/1202/453
f 129/1203/454 133/1211/458 136/1212/459 132/1204/455
f 130/1205/456 134/1213/460 133/1214/458 129/1206/454
f 131/1207/457 135/1215/461 134/1216/460 130/1208/456
f 132/1209/455 136/1217/459 135/1218/461 131/1210/457
f 133/1211/458 137/1219/462 140/1220/463 136/1212/459
f 134/1221/460 138/1222/464 137/1223/462 133/1224/458
f 135/1215/461 139/1225/465 138/1226/464 134/1216/460
f 136/1227/459 140/1228/463 139/1229/465 135/1230/461
f 137/1219/462 141/1231/466 144/1232/467 140/1220/463
f 138/1222/464 142/1233/468 141/1234/466 137/1223/462
f 139/1225/465 143/1235/469 142/1236/468 138/1226/464
f 140/1228/463 144/1237/467 143/1238/469 139/1229/465
